<?xml version="1.0" encoding="utf-8"?>
<!-- Generator: Adobe Illustrator 21.0.0, SVG Export Plug-In . SVG Version: 6.00 Build 0)  -->
<svg version="1.1" id="Layer_1" xmlns="http://www.w3.org/2000/svg" xmlns:xlink="http://www.w3.org/1999/xlink" x="0px" y="0px"
	 viewBox="0 0 559.5 418.5" style="enable-background:new 0 0 559.5 418.5;" xml:space="preserve">
<style type="text/css">
	.st0{fill:#FFFFFF;}
</style>
<g>
	<g>
		<path class="st0" d="M461.6,94.4c-16,0.2-33,6.5-46.9,18.6c-13.9,11.9-24.4,30.6-24.2,53.5c0.1,18.5,0.1,66.4,0.1,109.7
			c-0.1,43.2-0.1,81.7-0.1,81.8c0,7.6,6.1,13.7,13.7,13.8h0.1c7.5,0,13.6-6.2,13.6-13.7c0,0,0.3-154.2,0.1-191.7
			c0-14.4,6-24.8,14.8-32.6c8.7-7.7,20.6-11.9,29.1-11.8c11.2-0.1,21.5,4.3,28.9,11c7.4,6.7,11.6,15.4,11.6,23.9
			c0.1,8.9-3.7,16.9-9.2,22.8c-3.4,3.8-7.4,6.3-10.7,7.6c3.4-4.6,5.5-10.2,5.5-16.4c-0.1-14.9-12.3-26.9-27.2-26.8
			c-9.6,0.1-18.1,5.2-22.8,12.9c-3.1,4.6-5.8,11.1-6.1,19.2c0.2,6.3,1.8,13.1,5,18.4c4.3,7.2,12.1,13.6,19.1,16.7
			c7,3,14.5,4.7,22,4.6c13.7-0.3,25.8-7.2,35.5-17.4c9.6-10.3,16.6-24.8,16.5-41.7C529.1,122,498.3,94.4,461.6,94.4z"/>
		<path class="st0" d="M25.8,156.6c-0.1,16.8,6.9,31.4,16.5,41.7c9.7,10.2,21.8,17.1,35.5,17.4c7.5,0,14.9-1.6,22-4.6
			c7-3.1,14.8-9.5,19.1-16.7c3.1-5.2,4.8-12.1,5-18.4c-0.3-8.1-3-14.5-6.1-19.2c-4.7-7.6-13.1-12.8-22.8-12.9
			c-14.9-0.1-27.1,11.9-27.2,26.8c0,6.2,2,11.8,5.4,16.4c-3.3-1.3-7.4-3.8-10.7-7.6c-5.5-5.9-9.2-13.9-9.2-22.8
			c0-8.4,4.2-17.1,11.6-23.9c7.4-6.7,17.7-11.1,28.9-11c8.4-0.1,20.3,4.1,29.1,11.8c8.8,7.8,14.8,18.2,14.8,32.6
			c-0.2,37.4,0.1,191.7,0.1,191.7c0,7.6,6.1,13.7,13.6,13.7h0.1c7.6,0,13.7-6.2,13.7-13.8c0-0.1-0.1-38.6-0.1-81.8
			c0-43.2-0.1-91.2,0.1-109.7c0.2-22.9-10.3-41.6-24.2-53.5c-14-12-30.9-18.4-46.9-18.6C57.3,94.4,26.5,122,25.8,156.6z"/>
		<path class="st0" d="M200.8,358.9V166.5c0-8.5,6.9-15.4,15.5-15.4l0,0c8.5,0,15.4,6.9,15.4,15.4l0,0v192.4
			c0,8.5-6.9,15.4-15.4,15.4l0,0C207.7,374.4,200.8,367.4,200.8,358.9L200.8,358.9z"/>
		<path class="st0" d="M262.3,358.9V166.5c0-8.5,6.9-15.5,15.5-15.5l0,0c8.5,0,15.5,6.9,15.5,15.5l0,0v192.4
			c0,8.5-6.9,15.4-15.5,15.4l0,0C269.2,374.4,262.3,367.4,262.3,358.9L262.3,358.9z"/>
		<path class="st0" d="M324,358.9V166.5c0-8.5,6.9-15.5,15.5-15.5l0,0c8.5,0,15.5,6.9,15.5,15.5l0,0v192.4c0,8.5-6.9,15.5-15.5,15.5
			l0,0C330.9,374.4,324,367.4,324,358.9L324,358.9z"/>
		<path class="st0" d="M193.1,127.1c-7.6,0-13.7-6.2-13.7-13.7l0,0c0-7.6,6.2-13.7,13.7-13.7l0,0h167.2c7.6,0,13.7,6.2,13.7,13.7
			l0,0c0,7.6-6.2,13.7-13.7,13.7l0,0H193.1L193.1,127.1z"/>
		<path class="st0" d="M130,83.8c-7.6,0-13.7-6.1-13.7-13.7l0,0c0-7.6,6.2-13.7,13.7-13.7l0,0h294.4c7.6,0,13.7,6.2,13.7,13.7l0,0
			c0,7.6-6.2,13.7-13.7,13.7l0,0H130L130,83.8z"/>
	</g>
	<g>
		<path class="st0" d="M445.8,346.1v7.4v2.7v2.9v2.7v3.4h-4v-19.1h-3.6h-1.8H435v-2.8h17.6v2.8H445.8z"/>
		<path class="st0" d="M474.7,365.2v-9v-9.1h-0.1l-3.4,9.4l-3.1,8.6h-3.7l-3-8.7l-1.6-4.7l-1.7-4.9H458v18.2H455v-10.1v-5.8v-6h5.6
			l2.5,7.4l1.5,4.4l1.9,5.6l0.1-0.3l6.1-17h5.5v11.3v10.6H474.7z"/>
	</g>
</g>
</svg>
