<?xml version="1.0" encoding="utf-8"?>
<!-- Generator: Adobe Illustrator 22.1.0, SVG Export Plug-In . SVG Version: 6.00 Build 0)  -->
<svg version="1.1" id="Layer_1" xmlns="http://www.w3.org/2000/svg" xmlns:xlink="http://www.w3.org/1999/xlink" x="0px" y="0px"
	 viewBox="0 0 361.7 94.9" style="enable-background:new 0 0 361.7 94.9;" xml:space="preserve">
<style type="text/css">
	.st0{fill:#FFFFFF;}
</style>
<g>
	<path class="st0" d="M38.4,4.9H28.1c-1.1,0-1.7,0.1-2,0.4c-0.3,0.3-0.4,1-0.4,2.2v35.9v1.4c0.1,2.9,1.7,4.6,4.8,5.1
		c0.9,0.1,1.3,0.4,1.3,0.8c0,0.5-0.3,0.8-1,0.8c-0.3,0-0.9-0.1-1.8-0.2c-0.5-0.1-1.6-0.1-3.3-0.1H23h-2.9c-1,0-1.9,0-2.6,0.1
		c-1.4,0.1-2.2,0.2-2.4,0.2c-0.7,0-1.1-0.3-1.1-0.8c0-0.4,0.4-0.6,1.2-0.7c1.9-0.2,3.1-0.8,3.8-1.6s1-2.2,1-4.3V7.9v-1
		c0-0.9-0.1-1.4-0.4-1.7c-0.3-0.2-0.8-0.4-1.8-0.4H8.1c-2,0-3.4,0.4-4.3,1.2c-0.9,0.8-1.6,2.3-2.1,4.5c-0.2,0.9-0.5,1.4-1,1.4
		c-0.4,0-0.7-0.3-0.7-1c0-0.5,0.2-1.4,0.4-2.8c0.4-1.7,0.5-3.2,0.5-4.3S1,2,1.3,1.6c0.3-0.3,0.8-0.5,1.6-0.5h39.3
		c1.3,0,2.2,0.1,2.4,0.4C44.9,1.8,45,2.7,45,4.1s0.1,2.5,0.2,3.1C45.3,8,45.4,8.6,45.4,9c0,0.7-0.2,1.1-0.8,1.2
		c-0.4,0-0.7-0.4-0.9-1.1c-0.3-1.7-0.8-2.9-1.5-3.4C41.8,5.1,40.5,4.9,38.4,4.9"/>
	<path class="st0" d="M64.7,23.7h21.6c1.1,0,1.8-0.1,2-0.3c0.3-0.2,0.4-0.6,0.4-1.3V9.6c0-2.5-0.3-4.3-1-5.4c-0.6-1-1.8-1.8-3.6-2.2
		C83.4,1.9,83,1.6,83,1.1c0-0.4,0.3-0.6,0.9-0.6c0.5,0,1.3,0.1,2.5,0.2C88,0.9,89.7,1,91.5,1c2.6,0,4.4-0.1,5.5-0.2
		c0.7-0.1,1.1-0.1,1.4-0.1c0.6,0,0.9,0.2,0.9,0.7c0,0.4-0.3,0.6-0.9,0.7l-1.5,0.3C96.1,2.5,95.5,3.1,95,4s-0.8,2-0.8,3.2v35.3
		c0,2.6,0.4,4.4,1.1,5.4s2.1,1.6,4.2,1.8c0.8,0.1,1.1,0.3,1.2,0.7c0.1,0.6-0.3,0.9-1,0.9c-0.5,0-1.1-0.1-1.9-0.2
		C97.2,51,96,51,94.1,51h-2.7l-2.7,0.1c-0.4,0-1,0-1.8,0.1c-1.5,0.1-2.3,0.2-2.5,0.2c-0.6,0-0.9-0.2-0.9-0.7c0-0.4,0.4-0.7,1.2-0.8
		c2.6-0.4,3.8-2.5,3.8-6.3v-1.4V28.8c0-1.1-0.1-1.8-0.3-2c-0.2-0.2-0.9-0.3-2.2-0.3H64.5c-1.4,0-2.3,0.1-2.6,0.4
		c-0.3,0.3-0.5,1-0.5,2.1v13.4c0,2.5,0.4,4.3,1.2,5.3c0.8,1,2.3,1.7,4.5,1.9c0.9,0.1,1.4,0.4,1.4,0.9s-0.3,0.8-1.1,0.8
		c-0.3,0-0.9-0.1-1.8-0.2c-0.7-0.1-2.1-0.2-4.4-0.2h-3.1L55.7,51c-0.6,0-1.4,0-2.3,0.1c-1.3,0.1-2,0.2-2.3,0.2
		c-0.6,0-0.9-0.2-0.9-0.7c0-0.4,0.3-0.7,1-0.9l1.8-0.4c1.1-0.2,1.8-1,2.2-2.4c0.4-1.4,0.6-3.8,0.6-7.2V8.4c0-2.1-0.4-3.7-1.2-4.6
		c-0.8-1-2.2-1.6-4.3-1.9c-0.7-0.1-1.1-0.4-1.1-0.8c0-0.5,0.3-0.7,1-0.7c0.5,0,1.2,0.1,2.2,0.2c1.9,0.2,4.1,0.3,6.7,0.3
		c1.7,0,3.3-0.1,4.9-0.3c0.7-0.1,1.2-0.1,1.5-0.1c0.7,0,1.1,0.2,1.1,0.8c0,0.4-0.3,0.7-1,0.8c-1.6,0.4-2.7,1-3.3,1.8
		c-0.6,0.8-0.8,2.1-0.8,3.9v13c0,1.4,0.1,2.2,0.4,2.5C62.3,23.6,63.2,23.7,64.7,23.7"/>
	<path class="st0" d="M117.9,6.8v14.7c0,1.1,0.1,1.8,0.3,2c0.2,0.2,0.8,0.3,1.9,0.3h5.6c2.6,0,4.6-0.1,6.1-0.4
		c1.3-0.3,2.2-0.6,2.6-1.1c0.4-0.4,0.7-1.5,1.1-3.1c0.1-0.6,0.4-0.9,0.9-0.9s0.7,0.4,0.7,1c0,0.2,0,0.4,0,0.8
		c-0.2,2.4-0.3,4.5-0.3,6.5c0,1.5,0.1,2.9,0.2,4.4c0,0.5,0.1,0.8,0.1,1.1c0,0.6-0.2,0.9-0.7,0.9s-0.8-0.3-0.9-0.8l-0.2-1
		c-0.3-1.6-0.9-2.7-1.7-3.3c-0.9-0.6-2.4-0.9-4.4-0.9h-8.1c-1.2,0-2,0.1-2.4,0.4c-0.4,0.2-0.6,0.7-0.6,1.5v1.2v13.5
		c0,2.1,0.4,3.4,1.1,3.9s2.6,0.8,5.6,0.8c9.6,0,15.7-2.2,18.4-6.5c0.3-0.4,0.5-0.6,0.8-0.7c0.5,0,0.7,0.3,0.7,0.9
		c0,1.6-0.9,3.5-2.7,5.6c-2.1,2.6-4.8,3.9-8.1,3.9c-0.7,0-1.7,0-2.8-0.1c-4.7-0.4-8.5-0.7-11.5-0.7c-4.3,0-7.3,0.1-9,0.4
		c-0.9,0.2-1.6,0.3-1.9,0.3c-0.8,0-1.2-0.3-1.2-0.8c0-0.4,0.3-0.7,0.9-0.9l1.4-0.4c1.8-0.5,2.6-2.2,2.6-5.1v-2.4V11
		c0-3.5-0.4-5.8-1.2-7c-0.8-1.2-2.3-1.8-4.5-1.8c-0.7,0-1.1-0.2-1.1-0.7c0-0.7,0.5-1,1.6-1c0.6,0,1.4,0.1,2.4,0.2
		c3.5,0.4,7.7,0.6,12.6,0.6c3,0,5.6-0.1,7.9-0.1l5.2-0.3c1.4,0,2.3-0.1,2.6-0.1c0.7-0.1,1.1-0.1,1.5-0.1c0.8,0,1.2,0.4,1.2,1.1
		c0,0.2,0,0.5-0.1,0.8s-0.2,1.3-0.3,2.9l-0.1,2.1c-0.1,1.4-0.2,2.3-0.4,2.6c-0.1,0.3-0.4,0.5-0.8,0.6c-0.5,0-0.7-0.3-0.7-1.1V8.8
		c0-0.8-0.1-1.5-0.4-2.2c-0.5-1.1-1.4-1.8-2.8-2.2s-4-0.5-7.8-0.5h-5.7c-1.5,0-2.5,0.2-2.9,0.6C118.1,4.7,117.9,5.5,117.9,6.8"/>
	<path class="st0" d="M195.1,0c7.6,0,13.7,2.2,18.4,6.6c4.7,4.4,7,10.2,7,17.4c0,7.8-2.4,14.5-7.2,19.9c-4.7,5.3-11.2,8-19.4,8
		c-7.9,0-14.2-2.3-18.9-6.9c-4.7-4.6-7.1-10.8-7.1-18.5c0-3.3,0.6-6.6,1.8-9.9c1.2-3.3,2.8-6,4.9-8.2c2.4-2.6,5.4-4.6,9-6.1
		C187.2,0.8,191,0,195.1,0 M192.5,2.8c-4.9,0-8.7,1.8-11.5,5.4s-4.1,8.7-4.1,15.2c0,7.6,1.7,13.9,5.2,18.6c3.5,4.8,7.9,7.2,13.5,7.2
		c5,0,9-2,12-5.9c3-4,4.5-9.2,4.5-15.9c0-3.8-0.7-7.6-2.1-11.2s-3.2-6.5-5.6-8.7C201,4.3,197.1,2.8,192.5,2.8"/>
	<path class="st0" d="M247.2,5.1l16.6,38.2c0.8,1.9,1.8,3.4,2.9,4.3c1.1,0.9,2.6,1.6,4.4,1.9c0.4,0.1,0.7,0.4,0.7,1
		c0,0.7-0.3,1-0.8,1c-0.3,0-0.8-0.1-1.4-0.2c-1.9-0.4-4.9-0.6-9.1-0.6s-7.1,0.2-8.6,0.6c-0.4,0.1-0.7,0.2-0.9,0.2c-0.7,0-1-0.3-1-1
		c0-0.3,0.3-0.6,0.8-0.8c1.2-0.3,2.1-0.9,2.9-1.8c0.8-0.9,1.2-1.8,1.2-2.8c0-1.4-1.1-4.4-3.2-9c-0.7-1.4-1.4-2.2-2.2-2.4
		c-0.8-0.2-3.6-0.3-8.4-0.3h-5l-3.3,0.6c-0.9,0.4-1.9,2-3.1,4.8l-1.1,2.8c-0.3,0.8-0.5,1.6-0.5,2.4c0,3.1,2.1,4.8,6.4,5.3
		c0.9,0.1,1.4,0.5,1.4,1.1s-0.5,1-1.3,1c-0.4,0-1.1-0.1-1.9-0.2c-1.6-0.3-3-0.5-4.3-0.5c-1.1,0-3,0.1-5.6,0.4
		c-1.9,0.2-3.1,0.3-3.6,0.3c-0.7,0-1-0.3-1-0.9c0-0.5,0.3-0.9,1-1.1c1.3-0.4,2.4-1.2,3.2-2.3c0.8-1.1,2-3.4,3.5-7l10-23
		c0.8-1.8,1.4-3.1,1.7-3.8l3.4-7l1.7-3.4V3c0.8-1.9,1.3-2.8,1.6-2.8c0.4,0,1.1,1,2,3.1L247.2,5.1z M248.6,27.9l-4.8-11.1
		c-1.2-2.7-2-4-2.4-4c-0.3,0-0.8,0.9-1.6,2.6l-0.7,1.5l-4.3,9.7l-0.4,0.9c-0.2,0.4-0.3,0.7-0.3,0.9c0,0.8,0.9,1.2,2.6,1.2h10.8
		c0.9,0,1.4-0.3,1.4-0.8c0-0.1-0.1-0.3-0.2-0.6L248.6,27.9z"/>
	<path class="st0" d="M289.2,11.7V25c0,0.9,0.2,1.4,0.6,1.4c0.2,0,0.8-0.4,1.7-1.1l3.6-3.2l5.1-4.5c6.7-6,10.1-10.1,10.1-12.3
		c0-0.7-0.3-1.3-1-1.8c-0.6-0.5-1.4-0.7-2.5-0.7c-0.8,0-1.2-0.3-1.2-1c0-0.6,0.5-0.9,1.4-0.9c1,0,2,0.1,3.1,0.2
		c2.6,0.3,4.4,0.4,5.5,0.4c0.8,0,1.7-0.1,2.9-0.2c2.5-0.3,4.2-0.4,5.2-0.4c0.9,0,1.3,0.4,1.3,1.1c0,0.5-0.5,0.9-1.6,1.1
		c-1.7,0.3-3.6,1.2-5.8,2.7s-5.2,4.2-9.2,8c-1.9,1.7-3.1,2.9-3.8,3.5c-2.1,1.7-3.1,3-3.1,3.8c0,0.6,0.5,1.6,1.6,3.2l2.6,3.6
		c6.1,8.4,10.5,13.9,13.3,16.7c1.9,1.9,4.6,3.4,8.1,4.4l0.8,0.2c0.6,0.2,0.9,0.6,0.9,1.2c0,0.6-0.4,0.9-1.1,0.9
		c-0.3,0-0.6,0-1.1-0.1c-2.4-0.2-4.4-0.4-6.1-0.4c-0.8,0-1.6,0-2.4,0.1c-1.6,0.2-2.5,0.3-2.9,0.3c-1.3,0-2.4-0.6-3.4-1.9
		c-0.1-0.1-0.6-0.7-1.4-1.7c-2.1-2.5-4.8-6-8.1-10.4s-5.4-7.3-6.1-8.6c-0.7-1.1-1.2-1.7-1.7-1.7c-0.3,0-0.7,0.2-1.1,0.7l-1.1,1.1
		l-1.6,1.5c-0.6,0.6-1,1.3-1.2,2s-0.2,2.1-0.2,4.2v1.4c0,3.9,0.4,6.7,1.2,8.4s2.2,2.6,4.3,2.7c1.3,0.1,2,0.5,2,1.1
		c0,0.7-0.4,1.1-1.2,1.1c-0.5,0-1.2-0.1-2.3-0.3c-1.3-0.2-3-0.3-5-0.3c-2.7,0-5.3,0.1-7.7,0.4c-1.6,0.1-2.8,0.2-3.8,0.2
		c-0.9,0-1.4-0.4-1.4-1.1c0-0.5,0.3-0.8,0.9-0.9c1.7-0.3,3-1,3.6-2.3c0.7-1.3,1-3.5,1-6.5V11V9.6l-0.3-2.1c-0.4-1.3-1.1-2.3-2.1-3
		s-2.5-1.1-4.4-1.3c-0.6-0.1-0.9-0.2-1.1-0.3c-0.1-0.1-0.2-0.5-0.2-1.1s0.3-0.9,1-0.9c0.6,0,1.2,0,1.8,0.1c2.5,0.3,5.5,0.4,8.8,0.4
		c2.9,0,5.4-0.1,7.7-0.4c0.6-0.1,1.2-0.1,1.6-0.1c0.7,0,1.1,0.3,1.1,1c0,0.4-0.3,0.7-0.9,0.9c-2.1,0.6-3.4,1.3-3.9,2.1
		s-0.8,2.7-0.8,5.5V11.7z"/>
	<path class="st0" d="M344.1,0.1c2.3,0,4.5,0.4,6.7,1.3l2.4,1c1.1,0.4,1.9,0.7,2.3,0.7c0.3,0,0.7-0.1,1.1-0.3l1.4-0.7
		c0.2-0.1,0.4-0.1,0.6-0.1c0.5,0,0.8,0.4,0.8,1.2l-0.1,3c0,0.5,0,0.9,0.1,1.3l0.5,3.6l0.4,3.3c0,0.3,0.1,0.5,0.1,0.7
		c0,1-0.3,1.6-0.9,1.6c-0.4,0-0.8-0.5-0.9-1.4c-0.7-3.4-2.5-6.3-5.3-8.8c-2.9-2.5-5.9-3.7-9.1-3.7c-2.2,0-4.1,0.7-5.7,2.2
		s-2.5,3.2-2.5,5.2c0,1.9,0.7,3.5,2.2,4.8c0.9,0.9,3.8,2.3,8.7,4.3c5.8,2.4,9.6,4.7,11.5,6.9c2.2,2.7,3.3,6,3.3,9.9
		c0,4.2-1.5,7.9-4.6,11.1c-3.1,3.1-6.7,4.7-10.8,4.7c-1.7,0-4.3-0.6-8-1.7c-1.7-0.6-3-0.9-3.8-1.1c-1.1-0.2-1.8-0.4-2-0.6
		c-0.2-0.2-0.3-0.8-0.5-1.9c-0.1-1.1-0.5-2.8-1.1-5c-0.9-3.3-1.4-5.4-1.4-6.4c0-1.2,0.4-1.8,1.1-1.8c0.3,0,0.6,0.3,0.7,0.9
		c1.2,4.2,3.3,7.7,6.2,10.5c3,2.8,6,4.3,9.2,4.3c2.5,0,4.7-0.9,6.6-2.8c1.9-1.9,2.9-4,2.9-6.5c0-1.9-0.5-3.5-1.5-4.7
		s-2.8-2.4-5.2-3.5l-5.6-2.5c-5.2-2.3-8.8-4.6-10.7-6.6c-1.9-2.1-2.8-4.9-2.8-8.3c0-4,1.3-7.4,3.9-10.1C337,1.4,340.2,0.1,344.1,0.1
		"/>
</g>
<g>
	<path class="st0" d="M30.9,94.5c-0.3,0-0.7-0.1-0.9-0.1h-0.9h-0.9c-0.3,0-0.6,0-0.9,0.1c-0.2-0.5-0.4-1.2-0.7-2
		c-0.3-0.8-0.6-1.6-0.9-2.4s-0.7-1.7-1.1-2.6s-0.7-1.7-1-2.5c-0.8,0-1.5,0-2.3,0s-1.6,0-2.4,0c-0.7,0-1.5,0-2.2,0s-1.4,0-2.2,0
		c-0.8,1.9-1.5,3.6-2.1,5.3c-0.6,1.7-1.1,3.1-1.4,4.2c-0.4,0-0.8-0.1-1.3-0.1s-0.9,0-1.3,0.1c1.9-4.2,3.8-8.3,5.7-12.4
		c1.8-4.1,3.7-8.3,5.5-12.6h0.7c0.6,1.4,1.2,2.9,1.9,4.5s1.3,3.2,2,4.9c0.7,1.7,1.4,3.3,2.1,4.9s1.3,3.1,1.9,4.5s1.2,2.6,1.6,3.7
		C30.2,93.1,30.6,94,30.9,94.5 M15,83.4c0.6,0,1.3,0,1.9,0c0.7,0,1.3,0,1.9,0c0.7,0,1.3,0,2,0s1.3,0,2-0.1l-4-9.1L15,83.4z"/>
	<path class="st0" d="M40.6,71.8c-0.6,0-1.3,0-1.9,0c-0.7,0-1.4,0-2,0.1c-0.7,0-1.3,0.1-2,0.1c-0.6,0-1.2,0.1-1.7,0.2
		c0.1-0.4,0.2-0.8,0.2-1.1c0-0.3-0.1-0.6-0.2-1.1c1.6,0,3.1,0.1,4.6,0.1s3,0,4.6,0s3.1,0,4.6,0s3-0.1,4.6-0.1
		c-0.1,0.5-0.2,0.9-0.2,1.1c0,0.3,0.1,0.7,0.2,1.1c-0.5-0.1-1.1-0.1-1.7-0.2s-1.3-0.1-2-0.1s-1.4-0.1-2-0.1c-0.7,0-1.3,0-2,0
		c-0.1,2.5-0.1,4.9-0.1,7.4v6.2c0,1.6,0,3.1,0.1,4.6s0.1,3,0.2,4.5c-0.5,0-1.1-0.1-1.8-0.1c-0.6,0-1.2,0-1.8,0.1
		c0.1-1.5,0.1-3,0.2-4.5s0.1-3.1,0.1-4.6v-6.2C40.7,76.8,40.6,74.3,40.6,71.8"/>
	<path class="st0" d="M72.1,74.6C72,73.1,72,71.5,71.9,70c0.3,0,0.6,0.1,0.9,0.1s0.6,0,0.9,0s0.6,0,0.9,0s0.6-0.1,0.9-0.1
		c-0.1,1.6-0.1,3.1-0.2,4.6s-0.1,3.1-0.1,4.6c0,3,0,5.6,0,7.8c0,2.2,0,4.2,0.1,5.9c1.7,0,3.3,0,4.9-0.1c1.6,0,3.2-0.2,5-0.4
		c-0.1,0.4-0.2,0.8-0.2,1.1c0,0.3,0.1,0.6,0.2,1c-1.1,0-2.2-0.1-3.3-0.1h-3.3h-3.3c-1.1,0-2.2,0-3.3,0.1c0.1-1.5,0.1-3,0.2-4.5
		s0.1-3.1,0.1-4.6v-6.2C72.2,77.7,72.1,76.1,72.1,74.6"/>
	<path class="st0" d="M113.8,94.5c-0.3,0-0.7-0.1-1-0.1h-0.9h-1c-0.3,0-0.6,0-0.9,0.1c-0.2-0.5-0.4-1.2-0.7-2
		c-0.3-0.8-0.6-1.6-0.9-2.4s-0.7-1.7-1.1-2.6s-0.7-1.7-1-2.5c-0.8,0-1.5,0-2.3,0s-1.6,0-2.4,0c-0.7,0-1.5,0-2.2,0s-1.4,0-2.2,0
		c-0.8,1.9-1.5,3.6-2.1,5.3c-0.6,1.7-1.1,3.1-1.4,4.2c-0.4,0-0.8-0.1-1.3-0.1s-0.9,0-1.3,0.1c1.9-4.2,3.8-8.3,5.7-12.4
		c1.8-4.1,3.7-8.3,5.5-12.6h0.7c0.6,1.4,1.2,2.9,1.9,4.5c0.7,1.6,1.3,3.2,2,4.9c0.7,1.7,1.4,3.3,2.1,4.9s1.3,3.1,1.9,4.5
		s1.2,2.6,1.6,3.7C113.1,93.1,113.5,94,113.8,94.5 M97.9,83.4c0.6,0,1.3,0,1.9,0c0.7,0,1.3,0,1.9,0c0.7,0,1.3,0,2,0s1.3,0,2-0.1
		l-4-9.1L97.9,83.4z"/>
	<path class="st0" d="M134.4,74.6c-0.1-1.5-0.1-3.1-0.2-4.6c0.6,0,1.2,0.1,1.7,0.1c0.6,0,1.2,0,1.7,0c0.3,0,0.6,0,1,0s0.8,0,1.2,0
		c0.4,0,0.8,0,1.2-0.1c0.4,0,0.7,0,1,0c0.4,0,0.8,0,1.3,0s1.1,0.1,1.7,0.2s1.2,0.3,1.7,0.5c0.6,0.2,1.1,0.6,1.6,1
		c0.5,0.5,0.8,1,1.1,1.7c0.3,0.7,0.4,1.5,0.4,2.5c0,1.6-0.3,2.8-1,3.8s-1.5,1.7-2.5,2.3c-1,0.5-2,0.9-3.1,1.1s-2.1,0.3-2.9,0.3
		c-0.5,0-1,0-1.5,0s-0.9,0-1.4-0.1v2c0,1.6,0,3.1,0.1,4.6s0.1,3,0.2,4.5c-0.6,0-1.1-0.1-1.8-0.1c-0.6,0-1.2,0-1.8,0.1
		c0.1-1.5,0.1-3,0.2-4.5s0.1-3.1,0.1-4.6v-6.2C134.5,77.7,134.4,76.1,134.4,74.6 M139.9,82.2c0.7,0,1.5-0.1,2.3-0.2
		c0.8-0.2,1.5-0.5,2.2-0.9s1.2-1,1.6-1.8s0.6-1.8,0.6-3c0-1-0.1-1.9-0.4-2.5s-0.7-1.1-1.2-1.5s-1.1-0.6-1.9-0.7
		c-0.7-0.1-1.6-0.2-2.5-0.2h-3.2V82C138.2,82.1,139.1,82.2,139.9,82.2"/>
	<path class="st0" d="M174.8,94.5c-0.3,0-0.7-0.1-1-0.1h-0.9h-1c-0.3,0-0.6,0-0.9,0.1c-0.2-0.5-0.4-1.2-0.7-2
		c-0.3-0.8-0.6-1.6-1-2.4c-0.3-0.8-0.7-1.7-1.1-2.6s-0.7-1.7-1-2.5c-0.8,0-1.5,0-2.3,0s-1.6,0-2.4,0c-0.7,0-1.5,0-2.2,0
		s-1.4,0-2.2,0c-0.8,1.9-1.5,3.6-2.1,5.3c-0.6,1.7-1.1,3.1-1.4,4.2c-0.4,0-0.9-0.1-1.3-0.1c-0.5,0-0.9,0-1.3,0.1
		c1.9-4.2,3.8-8.3,5.7-12.4c1.8-4.1,3.7-8.3,5.5-12.6h0.7c0.6,1.4,1.2,2.9,1.9,4.5c0.7,1.6,1.3,3.2,2,4.9c0.7,1.7,1.4,3.3,2.1,4.9
		s1.3,3.1,2,4.5c0.6,1.4,1.2,2.6,1.6,3.7C174.1,93.1,174.5,94,174.8,94.5 M159,83.4c0.6,0,1.3,0,1.9,0c0.7,0,1.3,0,1.9,0
		c0.7,0,1.3,0,2,0s1.3,0,2-0.1l-4-9.1L159,83.4z"/>
	<path class="st0" d="M182,74.6c-0.1-1.5-0.1-3.1-0.2-4.6c0.3,0,0.6,0.1,0.9,0.1s0.6,0,0.9,0s0.6,0,0.9,0s0.6-0.1,0.9-0.1
		c-0.1,1.6-0.1,3.1-0.2,4.6s-0.1,3.1-0.1,4.6c0,3,0,5.6,0,7.8c0,2.2,0,4.2,0.1,5.9c1.7,0,3.3,0,4.9-0.1c1.5,0,3.2-0.2,5-0.4
		c-0.1,0.4-0.2,0.8-0.2,1.1c0,0.3,0.1,0.6,0.2,1c-1.1,0-2.2-0.1-3.3-0.1h-3.3h-3.3c-1.1,0-2.2,0-3.3,0.1c0.1-1.5,0.1-3,0.2-4.5
		s0.1-3.1,0.1-4.6v-6.2C182.1,77.7,182,76.1,182,74.6"/>
	<path class="st0" d="M200.6,76.9c0.6-1.6,1.6-2.9,2.7-4c1.2-1.1,2.6-1.9,4.2-2.5c1.7-0.6,3.4-0.9,5.4-0.9s3.8,0.3,5.4,0.9
		s3.1,1.4,4.2,2.5c1.2,1.1,2.1,2.4,2.7,4c0.7,1.6,1,3.4,1,5.4s-0.3,3.8-1,5.4s-1.6,2.9-2.7,4c-1.2,1.1-2.6,1.9-4.2,2.4
		c-1.7,0.5-3.5,0.8-5.4,0.8s-3.7-0.3-5.4-0.8c-1.6-0.5-3.1-1.4-4.2-2.4c-1.2-1.1-2.1-2.4-2.7-4c-0.7-1.6-1-3.4-1-5.4
		S199.9,78.5,200.6,76.9 M222.1,77.2c-0.5-1.4-1.2-2.6-2.1-3.6c-0.9-0.9-1.9-1.6-3.1-2.1s-2.5-0.7-3.9-0.7s-2.7,0.2-3.9,0.7
		c-1.2,0.5-2.2,1.2-3.1,2.1s-1.6,2.1-2.1,3.6c-0.5,1.4-0.8,3.2-0.8,5.1c0,2,0.3,3.7,0.8,5.1s1.2,2.6,2.1,3.6
		c0.9,0.9,1.9,1.6,3.1,2.1s2.5,0.7,3.9,0.7s2.7-0.2,3.9-0.7c1.2-0.5,2.2-1.2,3.1-2.1s1.6-2.1,2.1-3.6c0.5-1.4,0.7-3.2,0.7-5.1
		C222.9,80.3,222.6,78.6,222.1,77.2"/>
	<path class="st0" d="M241.7,79.4c1.7,3.2,3.4,6.5,5.3,9.8c0.2-0.5,0.6-1.1,1-1.9c0.5-0.8,1-1.8,1.6-2.9s1.2-2.3,1.9-3.6
		c0.7-1.3,1.4-2.6,2.1-3.9s1.4-2.6,2.1-3.9c0.7-1.3,1.3-2.4,1.9-3.5h0.5c0.3,2.3,0.5,4.5,0.7,6.6s0.5,4.2,0.7,6.3
		c0.2,2.1,0.5,4.1,0.7,6.1s0.5,4,0.8,6c-0.3,0-0.6-0.1-0.8-0.1h-0.8h-0.8c-0.3,0-0.6,0-0.8,0.1c-0.3-3.2-0.5-6.2-0.8-9.2
		s-0.6-6-1-9.1h-0.1c-1.6,3-3.3,6-4.8,9c-1.6,3-3.1,6.1-4.5,9.3h-0.3c-1.4-3-2.9-6-4.5-9s-3.1-6.1-4.7-9.2h-0.2
		c-0.2,1.5-0.4,3.1-0.6,4.8c-0.2,1.7-0.4,3.4-0.6,5.1s-0.3,3.3-0.4,4.8s-0.2,2.7-0.2,3.7c-0.4,0-0.8-0.1-1.2-0.1
		c-0.5,0-0.9,0-1.3,0.1c0.3-1.9,0.6-4,1-6.1c0.3-2.1,0.7-4.3,1-6.5s0.6-4.3,0.9-6.4s0.5-4.1,0.7-6h0.6
		C238.3,72.9,240,76.2,241.7,79.4"/>
	<path class="st0" d="M289.8,94.5c-0.3,0-0.7-0.1-0.9-0.1h-1h-1c-0.3,0-0.6,0-0.9,0.1c-0.2-0.5-0.4-1.2-0.7-2s-0.6-1.6-1-2.4
		c-0.3-0.8-0.7-1.7-1-2.6c-0.4-0.9-0.7-1.7-1-2.5c-0.8,0-1.5,0-2.3,0s-1.6,0-2.4,0c-0.7,0-1.5,0-2.2,0s-1.4,0-2.2,0
		c-0.8,1.9-1.5,3.6-2.1,5.3c-0.6,1.7-1.1,3.1-1.4,4.2c-0.4,0-0.8-0.1-1.3-0.1s-0.9,0-1.3,0.1c1.9-4.2,3.8-8.3,5.6-12.4
		s3.7-8.3,5.5-12.6h0.7c0.6,1.4,1.2,2.9,1.9,4.5s1.3,3.2,2,4.9c0.7,1.7,1.4,3.3,2.1,4.9c0.7,1.6,1.3,3.1,1.9,4.5
		c0.6,1.4,1.2,2.6,1.7,3.7C289.1,93.1,289.5,94,289.8,94.5 M274,83.4c0.6,0,1.3,0,1.9,0c0.7,0,1.3,0,1.9,0c0.7,0,1.3,0,2,0
		c0.7,0,1.3,0,2-0.1l-4-9.1L274,83.4z"/>
</g>
</svg>
