<?xml version="1.0" encoding="UTF-8"?>
<svg width="32px" height="32px" viewBox="0 0 32 32" version="1.1" xmlns="http://www.w3.org/2000/svg" xmlns:xlink="http://www.w3.org/1999/xlink">
    <!-- Generator: Sketch 50.2 (55047) - http://www.bohemiancoding.com/sketch -->
    <title>Group</title>
    <desc>Created with Sketch.</desc>
    <defs></defs>
    <g id="Page-1" stroke="none" stroke-width="1" fill="none" fill-rule="evenodd" stroke-linecap="round" stroke-linejoin="round">
        <g id="VOBFormIcon2" transform="translate(-240.000000, -841.000000)" stroke="#4A90E2" stroke-width="2">
            <g id="Group" transform="translate(241.000000, 842.000000)">
                <path d="M30,15 C30,23.2851724 23.282069,30 15,30 C6.71327586,30 0,23.2851724 0,15 C0,6.71534483 6.71327586,0 15,0 C23.282069,0 30,6.71534483 30,15 L30,15 Z" id="Stroke-1063" fill="#F4F9FF"></path>
                <path d="M22.9163793,22.9148276 L16.5517241,16.5517241" id="Stroke-1064"></path>
                <path d="M17.0689655,15 C17.0689655,16.1425862 16.14,17.0689655 15,17.0689655 C13.8558621,17.0689655 12.9310345,16.1425862 12.9310345,15 C12.9310345,13.8574138 13.8558621,12.9310345 15,12.9310345 C16.14,12.9310345 17.0689655,13.8574138 17.0689655,15 L17.0689655,15 Z" id="Stroke-1065"></path>
                <path d="M15,7.75862069 L15,12.9289655" id="Stroke-1066"></path>
            </g>
        </g>
    </g>
</svg>