
<svg width="18px" height="32px" viewBox="0 0 18 32" version="1.1" xmlns="http://www.w3.org/2000/svg" xmlns:xlink="http://www.w3.org/1999/xlink">
    <g id="Facility-Pages" stroke="none" stroke-width="1" fill="none" fill-rule="evenodd" stroke-linecap="round" stroke-linejoin="round">
        <g id="Desktop" transform="translate(-118.000000, -59.000000)" stroke="#6960AB" stroke-width="4">
            <polyline id="Path-4" points="134 61 120 75.4 133.222222 89"></polyline>
        </g>
    </g>
</svg>