<?xml version="1.0" encoding="UTF-8"?>
<svg width="31px" height="31px" viewBox="0 0 31 31" version="1.1" xmlns="http://www.w3.org/2000/svg" xmlns:xlink="http://www.w3.org/1999/xlink">
    <!-- Generator: Sketch 49.3 (51167) - http://www.bohemiancoding.com/sketch -->
    <title>Group 13 Copy</title>
    <desc>Created with Sketch.</desc>
    <defs></defs>
    <g id="Desktop" stroke="none" stroke-width="1" fill="none" fill-rule="evenodd">
        <g transform="translate(-793.000000, -5944.000000)" id="CostofTreatment">
            <g transform="translate(75.000000, 5864.000000)">
                <g id="Group-18" transform="translate(581.000000, 0.000000)">
                    <g id="Group-13-Copy" transform="translate(138.000000, 81.000000)">
                        <circle id="Oval-5" stroke="#13D17E" stroke-width="1.6" fill="#FFFFFF" cx="14.5" cy="14.5" r="14.5"></circle>
                        <polygon id="Page-1" fill="#13D17E" points="20.506375 7 11.9876458 14.9132236 8.493625 11.3700362 5 14.9132236 11.9876458 22 24 10.5431875"></polygon>
                    </g>
                </g>
            </g>
        </g>
    </g>
</svg>