<?xml version="1.0" encoding="utf-8"?>
<!-- Generator: Adobe Illustrator 22.1.0, SVG Export Plug-In . SVG Version: 6.00 Build 0)  -->
<svg version="1.1" id="Layer_1" xmlns="http://www.w3.org/2000/svg" xmlns:xlink="http://www.w3.org/1999/xlink" x="0px" y="0px"
	 width="10px" height="18px" viewBox="0 0 10 18" style="enable-background:new 0 0 10 18;" xml:space="preserve">
<style type="text/css">
	.st0{fill:none;stroke:#13D17E;stroke-width:3;stroke-linecap:round;}
</style>
<desc>Created with Sketch.</desc>
<g id="Desktop">
	<g id="Carousel" transform="translate(-1291.000000, -2963.000000)">
		<g transform="translate(-210.000000, 2831.000000)">
			<g id="Group-4" transform="translate(1484.000000, 117.000000)">
				<polyline id="Path-2" class="st0" points="19,17 25,24.2 19,31 				"/>
			</g>
		</g>
	</g>
</g>
</svg>
