<?xml version="1.0" encoding="utf-8"?>
<!-- Generator: Adobe Illustrator 22.1.0, SVG Export Plug-In . SVG Version: 6.00 Build 0)  -->
<svg version="1.1" id="Layer_1" xmlns="http://www.w3.org/2000/svg" xmlns:xlink="http://www.w3.org/1999/xlink" x="0px" y="0px"
	 width="28px" height="37px" viewBox="0 0 28 37" style="enable-background:new 0 0 28 37;" xml:space="preserve">
<style type="text/css">
	.st0{fill:#6960AB;}
</style>
<g id="Together">
	<g id="Desktop" transform="translate(-492.000000, -8507.000000)">
		<g id="WhatToExpect" transform="translate(75.000000, 8218.000000)">
			<g id="Group-12" transform="translate(402.000000, 277.000000)">
				<path id="Path-4" class="st0" d="M19,48.1l22.5-16.3c1-0.6,1.2-2.1,0.6-3.2c-0.2-0.2-0.4-0.4-0.6-0.6L19,12.9
					c-1-0.6-2.5-0.4-3.1,0.6c-0.2,0.4-0.4,0.8-0.4,1.3v31.4c0,1.3,1,2.3,2.3,2.3C18.2,48.5,18.8,48.3,19,48.1z"/>
			</g>
		</g>
	</g>
</g>
</svg>
