<?xml version="1.0" encoding="utf-8"?>
<!-- Generator: Adobe Illustrator 22.1.0, SVG Export Plug-In . SVG Version: 6.00 Build 0)  -->
<svg version="1.1" id="Layer_1" xmlns="http://www.w3.org/2000/svg" xmlns:xlink="http://www.w3.org/1999/xlink" x="0px" y="0px"
	 viewBox="0 0 779.9 98.1" style="enable-background:new 0 0 779.9 98.1;" xml:space="preserve">
<style type="text/css">
	.st0{fill:#2E4057;}
</style>
<g>
	<g>
		<g>
			<g>
				<path class="st0" d="M226.7,11.2c-1.2-4.8-1.1-5.9-13-5.9h-8.5c-0.4,1.8-0.6,5.2-0.6,9.9V25h5.6c10.1,0,10.1-1.2,10.7-3.8
					c0-0.1,0.9-0.1,0.9,0c-0.4,1.3-0.7,3.5-0.7,5.4c0,0.9,0.1,2.7,0.2,3.4c0.1,0.4-0.9,0.4-0.9,0.1c-0.5-2.8-1.5-3.5-10.3-3.5h-5.6
					v10.7c0,11.2,0.1,11.1,7.7,11.7c0.2,0.1,0.4,0.9,0,0.9c-2.4-0.3-6.6-0.5-9.9-0.5c-4.5,0-7.3,0.2-10.5,0.5
					c-0.4,0.1-0.2-0.8-0.1-0.9c6.1-0.6,6.7-0.6,6.7-11.7V15.5c0-11.3-0.1-10.9-8-11.8c-0.2,0-0.4-0.9,0-0.8
					c5.7,0.4,13.4,0.5,21.2,0.5c5.6,0,10.5-0.4,13.3-0.4c1.1,0,1.6,0.1,1.8,1.3c0.5,1.7,0.5,4.8,0.8,6.6
					C227.6,11.3,226.7,11.3,226.7,11.2z"/>
				<path class="st0" d="M212.2,50.1c-2.4-0.3-6.6-0.5-9.8-0.5l0,0c-4.5,0-7.3,0.1-10.4,0.5l0,0c-0.1,0-0.1,0-0.1,0l0,0
					c-0.5,0-0.6-0.6-0.6-0.8l0,0c0.1-0.3,0-0.6,0.4-0.9l0,0h0.1h0.1c3.1-0.3,4.6-0.5,5.3-1.7l0,0c0.8-1.3,1-4,1-9.6l0,0V15.5
					c0-5.6-0.1-8.3-1-9.5l0,0c-0.8-1.2-2.7-1.4-6.6-1.8l0,0C189.9,4,190,3.6,190,3.3l0,0c0-0.2,0.1-0.7,0.6-0.7l0,0h0.1l0,0
					c5.6,0.4,13.4,0.5,21.1,0.5l0,0c5.6,0,10.5-0.4,13.3-0.4l0,0c1.1-0.1,2,0.3,2.2,1.6l0,0c0.5,1.8,0.5,4.9,0.8,6.7l0,0
					c0,0.1,0,0.1,0,0.1l0,0c-0.2,0.7-0.7,0.6-0.9,0.6l0,0c-0.1,0-0.2,0-0.3,0l0,0c-0.1,0-0.3,0-0.4-0.4l0,0l0,0
					c-0.6-2.5-0.9-3.7-2.3-4.5l0,0c-1.5-0.8-4.4-1.1-10.3-1.1l0,0h-8.2c-0.3,1.8-0.5,5.1-0.5,9.5l0,0v9.4h5.1c5,0,7.5-0.3,8.8-0.9
					l0,0c1.2-0.6,1.2-1.2,1.6-2.6l0,0l0,0c0.1-0.4,0.3-0.3,0.3-0.3l0,0c0.1,0,0.1,0,0.2,0l0,0c0.1,0,0.3,0,0.4,0l0,0
					c0.1,0,0.2,0,0.3,0l0,0c0.1,0,0.4,0,0.4,0.5l0,0v0.1v0.1c-0.4,1.2-0.7,3.4-0.7,5.3l0,0c0,0.9,0.1,2.7,0.2,3.3l0,0
					c0,0.1,0,0.1,0,0.1l0,0c0,0.6-0.6,0.7-0.8,0.7l0,0c-0.3,0-0.7,0-0.9-0.6l0,0c-0.3-1.4-0.5-2-1.8-2.5l0,0
					c-1.3-0.5-3.7-0.7-8.1-0.7l0,0H205v10.3c0,5.6,0.1,8.4,0.9,9.6l0,0c0.8,1.2,2.5,1.4,6.4,1.7l0,0l0,0l0,0c0.5,0.3,0.5,0.6,0.5,1
					l0,0C212.9,49.6,212.8,50.1,212.2,50.1L212.2,50.1C212.3,50.1,212.2,50.1,212.2,50.1L212.2,50.1z M192.1,49.3
					c3.1-0.3,6-0.5,10.3-0.5l0,0c2.4,0,5.4,0.1,7.7,0.3l0,0c-2.4-0.2-3.9-0.5-4.9-1.9l0,0c-1.1-1.7-1-4.5-1.1-10.1l0,0v-11h6
					c4.4,0,6.9,0.2,8.4,0.7l0,0c1.5,0.6,2,1.7,2.3,3l0,0h0.1l0,0c-0.1-0.9-0.2-2.4-0.2-3.3l0,0c0-1.8,0.3-3.7,0.6-5.1l0,0
					c0,0,0,0-0.1,0l0,0c-0.3,1.2-0.6,2.3-2,3l0,0c-1.5,0.7-4,0.9-9.1,0.9l0,0h-6V15.1c0-4.7,0.2-8.1,0.6-10l0,0l0.1-0.3h8.9
					c6,0,8.9,0.3,10.7,1.2l0,0c1.8,1,2.1,2.6,2.6,4.8l0,0c0,0,0,0,0.1,0l0,0c-0.3-1.9-0.3-4.9-0.7-6.4l0,0c-0.3-1-0.3-0.9-1.4-1l0,0
					c-2.8,0-7.7,0.4-13.3,0.4l0,0c-7.4,0-14.8-0.1-20.4-0.5l0,0c3.5,0.4,5.4,0.5,6.6,2.1l0,0c1.1,1.7,1.1,4.4,1.1,10l0,0v21.7
					c0,5.5-0.1,8.3-1.1,10l0,0C196.7,48.8,195,49,192.1,49.3L192.1,49.3C192.1,49.2,192.1,49.3,192.1,49.3L192.1,49.3z M212,49.3
					L212,49.3L212,49.3c-0.3,0-0.6-0.1-0.9-0.1l0,0C211.4,49.2,211.8,49.2,212,49.3L212,49.3z M221.1,21.5L221.1,21.5L221.1,21.5
					L221.1,21.5z M226.7,11.2h0.1H226.7L226.7,11.2z"/>
			</g>
			<g>
				<path class="st0" d="M261.5,50.7c-16,0-27-11.3-27-23.6c0-11.8,11.8-25.1,28.4-25.1c16.1,0,27,11.3,27,23.5
					C289.9,37.4,278.2,50.7,261.5,50.7z M261.2,3.7c-11.7,0-20.3,7.8-20.3,21c0,16,11.4,24.3,22.4,24.3c11.7,0,20.3-7.8,20.3-21
					C283.6,12,272.1,3.7,261.2,3.7z"/>
				<path class="st0" d="M234.1,27c0-12.1,11.9-25.5,28.8-25.5l0,0c16.3,0,27.4,11.4,27.5,23.9l0,0c0,12.2-11.9,25.5-28.9,25.5l0,0
					v-0.4v-0.4c16.5,0,28-13.1,28-24.7l0,0c0-12-10.7-23.1-26.6-23.1l0,0c-16.4,0-27.9,13.1-28,24.6l0,0c0,12.1,10.8,23.2,26.5,23.2
					l0,0v0.4v0.4C245.3,51,234.1,39.6,234.1,27L234.1,27z M240.4,24.7c0-6.7,2.2-12.1,5.9-15.8l0,0c3.7-3.7,8.9-5.7,14.8-5.7l0,0
					v0.4V4c-11.5,0-19.9,7.6-19.9,20.6l0,0c0,15.8,11.2,23.9,22,23.9l0,0c11.5,0,19.9-7.6,19.9-20.6l0,0c0-15.8-11.2-23.9-22-23.9
					l0,0V3.6V3.2c11.2,0,22.8,8.5,22.8,24.7l0,0c0,6.7-2.2,12.1-5.9,15.8l0,0c-3.7,3.7-8.9,5.7-14.8,5.7l0,0
					C252,49.4,240.5,40.9,240.4,24.7L240.4,24.7z"/>
			</g>
			<g>
				<path class="st0" d="M345.5,14.8v18c0,9.7-6.8,17.8-20.2,17.8c-11.5,0-20.8-6.8-20.8-18.3V15.5c0-11.1-0.3-11-7.3-11.8
					c-0.2,0-0.4-0.9,0-0.8c3.3,0.4,6.8,0.5,11.2,0.5c3.3,0,7.1-0.2,9.5-0.5c0.5-0.1,0.2,0.8,0.1,0.8c-7.3,0.6-7.4,1.1-7.4,11.8V31
					c0,11.7,8.7,16.7,16.7,16.7c10.5,0,16-5.4,16-15.5V14.8c0-9.4-0.7-10.4-7.7-11.1c-0.2,0-0.4-0.9,0.1-0.8
					c3.2,0.4,5.2,0.5,9.6,0.5c3.2,0,5.5-0.2,7.8-0.5c0.5-0.1,0.3,0.8,0.1,0.8C345.9,4.3,345.5,5.9,345.5,14.8z"/>
				<path class="st0" d="M304,32.4V15.5c0-5.5-0.1-8.3-1-9.5l0,0c-0.8-1.2-2.4-1.5-5.9-1.8l0,0c-0.7-0.2-0.6-0.6-0.7-0.9l0,0
					c0-0.2,0.1-0.7,0.6-0.7l0,0h0.1l0,0c3.3,0.4,6.8,0.5,11.2,0.5l0,0c3.3,0,7.1-0.2,9.4-0.5l0,0h0.1l0,0c0.5,0,0.6,0.5,0.6,0.7l0,0
					c0,0.2,0,0.3-0.1,0.5l0,0c-0.1,0.1,0,0.3-0.5,0.4l0,0c-3.7,0.3-5.3,0.6-6.1,1.9l0,0c-0.8,1.3-0.9,4.1-0.9,9.5l0,0v15.5
					c0,11.5,8.4,16.3,16.3,16.3l0,0c10.3-0.1,15.5-5.2,15.6-15.1l0,0V14.8c0-4.7-0.2-7.2-1.1-8.6l0,0c-0.9-1.3-2.7-1.8-6.1-2.1l0,0
					c-0.7-0.2-0.6-0.6-0.6-0.9l0,0c0-0.2,0.2-0.8,0.7-0.8l0,0h0.1l0,0c3.2,0.4,5.1,0.5,9.6,0.5l0,0c3.2,0,5.4-0.2,7.8-0.5l0,0h0.1
					l0,0c0.5,0,0.7,0.5,0.7,0.8l0,0c-0.1,0.3,0,0.7-0.6,0.9l0,0c-3.6,0.3-5.4,0.8-6.3,2.2l0,0c-0.9,1.4-1,4-1,8.5l0,0v18
					c0,4.9-1.7,9.5-5.2,12.8l0,0c-3.5,3.3-8.6,5.4-15.4,5.4l0,0C313.6,51,304,44.1,304,32.4L304,32.4z M303.7,5.5
					c1.1,1.7,1.1,4.4,1.1,10l0,0v16.9c0,11.2,9,17.8,20.4,17.8l0,0c13.2,0,19.8-7.9,19.8-17.3l0,0v-18c0-4.5,0.1-7.2,1.2-8.9l0,0
					c0.8-1.3,2.1-1.9,4.2-2.3l0,0c-1.5,0.1-3.2,0.2-5.1,0.2l0,0c-3.5,0-5.5-0.1-7.7-0.3l0,0c2.3,0.3,3.8,0.9,4.8,2.2l0,0
					c1.1,1.7,1.3,4.4,1.3,9l0,0v17.3c0,5.1-1.4,9.1-4.2,11.8l0,0c-2.8,2.7-6.9,4.1-12.2,4.1l0,0c-8.1,0-17.1-5.2-17.1-17.2l0,0V15.5
					c0-5.3,0-8.2,1-9.9l0,0c0.8-1.2,1.9-1.7,3.8-2l0,0c-2.1,0.1-4.4,0.2-6.6,0.2l0,0c-3.4,0-6.2-0.1-8.9-0.3l0,0
					C301.5,3.8,302.9,4.2,303.7,5.5L303.7,5.5z"/>
			</g>
			<g>
				<path class="st0" d="M410,15.5v21.7c0,3.6,0.2,10.2,0.6,13.2c0,0.2-0.6,0.3-0.9-0.1l-38.1-37.8v24.6c0,9.8,0.1,11.2,7.4,11.7
					c0.2,0.1,0.4,0.9-0.1,0.9c-2.4-0.3-4.5-0.5-7.7-0.5c-4.5,0-6.3,0.2-9.5,0.5c-0.5,0.1-0.2-0.8-0.1-0.9c7-0.6,7.4-1.4,7.4-11.7
					V11.8c0-3.3-5-7.7-8.8-8.1c-0.2,0-0.3-0.9,0.1-0.8c3.2,0.4,6.1,0.5,10.6,0.5l36.5,36.5V15.5c0-10.3-0.3-11-7.4-11.8
					c-0.2,0-0.3-0.9,0.1-0.8c3.2,0.4,5,0.5,9.5,0.5c3.2,0,5.3-0.2,7.7-0.5c0.5-0.1,0.3,0.8,0.1,0.8C410,4.3,410,5.7,410,15.5z"/>
				<path class="st0" d="M409.4,50.6l-37.4-37v23.6c0,4.9,0.1,7.7,0.9,9.1l0,0c0.8,1.4,2.4,1.9,6.1,2.1l0,0h0.1h0.1
					c0.4,0.3,0.4,0.6,0.4,0.9l0,0c0,0.2-0.2,0.7-0.6,0.7l0,0h-0.1l0,0c-2.4-0.3-4.4-0.5-7.6-0.5l0,0c-4.5,0-6.2,0.1-9.4,0.5l0,0
					h-0.1l0,0c-0.5,0-0.6-0.5-0.6-0.7l0,0c0.1-0.4,0-0.6,0.5-0.9l0,0h0.1h0.1c3.5-0.3,5.2-0.7,6-2.1l0,0c0.9-1.4,1-4.1,1-9.2l0,0
					V11.8c0.1-2.9-4.9-7.3-8.4-7.7l0,0C360,4,360.1,3.8,360,3.7l0,0c-0.1-0.1-0.1-0.3-0.1-0.5l0,0c0-0.2,0.1-0.7,0.6-0.7l0,0h0.1
					l0,0c3.2,0.4,6.1,0.5,10.5,0.5l0,0h0.2L407,38.9V15.5c0-5.1-0.1-7.9-1-9.2l0,0c-0.8-1.4-2.5-1.8-6-2.1l0,0
					c-0.5-0.1-0.4-0.3-0.5-0.4l0,0c-0.1-0.1-0.1-0.3-0.1-0.5l0,0c0-0.2,0.1-0.7,0.6-0.7l0,0h0.1l0,0c3.2,0.4,5,0.5,9.4,0.5l0,0
					c3.2,0,5.3-0.2,7.6-0.5l0,0h0.1l0,0c0.5,0,0.7,0.5,0.7,0.8l0,0c-0.1,0.3,0,0.7-0.6,0.9l0,0c-3.6,0.3-5.3,0.8-6.1,2.2l0,0
					c-0.8,1.5-0.9,4.2-0.9,9.1l0,0v21.7c0,3.6,0.2,10.2,0.6,13.2l0,0c-0.1,0.6-0.5,0.6-0.8,0.6l0,0C409.9,51,409.6,50.9,409.4,50.6
					L409.4,50.6z M410,50c0,0,0.1,0.1,0.2,0.1l0,0c-0.4-3.2-0.6-9.4-0.6-13l0,0V15.5c0-4.9,0-7.7,1-9.5l0,0c0.7-1.3,2-1.9,3.9-2.3
					l0,0c-1.4,0.1-2.9,0.2-4.9,0.2l0,0c-3.4,0-5.3-0.1-7.4-0.3l0,0c2.3,0.3,3.7,0.9,4.6,2.3l0,0c1,1.8,1.1,4.5,1.1,9.7l0,0V41
					L370.8,4c-4.1,0-6.9-0.1-9.9-0.5l0,0c3.9,0.8,8.5,4.9,8.6,8.4l0,0v25.3c0,5.1-0.1,7.9-1.1,9.7l0,0c-1.1,1.7-3.1,2.1-6.4,2.4l0,0
					l0,0l0,0c3.1-0.3,4.9-0.5,9.3-0.5l0,0c2.2,0,4,0.1,5.6,0.3l0,0c-2.3-0.3-3.8-0.9-4.6-2.4l0,0c-1-1.8-1-4.6-1-9.5l0,0V11.5
					L410,50L410,50z M361.6,49.3L361.6,49.3L361.6,49.3L361.6,49.3z M378.7,49.3L378.7,49.3L378.7,49.3c-0.2,0-0.4-0.1-0.6-0.1l0,0
					C378.3,49.2,378.5,49.2,378.7,49.3L378.7,49.3z"/>
			</g>
			<g>
				<path class="st0" d="M449.5,49.5c-2.7,0-9.6-0.3-11.4-0.3c-4.5,0-9.1,0.2-12.3,0.5c-0.5,0.1-0.2-0.8-0.1-0.9
					c7-0.6,7.4-0.6,7.4-11.7V15.5c0-11.1-0.4-11-7.4-11.8c-0.2,0-0.4-0.9,0.1-0.8c3.2,0.4,8.5,0.5,13,0.5c1.9,0,9-0.3,11.8-0.3
					c18,0,27.1,9.8,27.1,22.5C477.7,38.6,466.4,49.5,449.5,49.5z M448.2,4.8c-5.5,0-7,0.2-8.3,0.4c-0.5,2.4-0.7,4.8-0.7,10.3v24.3
					c0,7.2,1.1,8.1,12.5,8.1c11.1,0,19.7-7.3,19.7-19.9C471.4,12.6,462.5,4.8,448.2,4.8z"/>
				<path class="st0" d="M425.1,49.4c0.1-0.4,0-0.6,0.5-0.9l0,0h0.1h0.1c3.5-0.3,5.2-0.5,6-1.7l0,0c0.9-1.2,1-4,1-9.5l0,0V15.5
					c0-5.5-0.1-8.3-1-9.5l0,0c-0.8-1.2-2.5-1.5-5.9-1.8l0,0c-0.5-0.1-0.4-0.3-0.5-0.4l0,0c-0.1-0.2-0.1-0.3-0.1-0.5l0,0
					c0-0.2,0.2-0.7,0.6-0.7l0,0h0.1l0,0c3.2,0.4,8.5,0.5,13,0.5l0,0c1.9,0,9-0.3,11.8-0.3l0,0c9.1,0,16,2.5,20.6,6.6l0,0
					c4.6,4.1,6.9,9.9,6.9,16.3l0,0c0,13.2-11.5,24.3-28.6,24.3l0,0v-0.4v-0.4c16.7,0,27.7-10.7,27.7-23.5l0,0c0-12.4-8.8-22-26.7-22
					l0,0c-2.7,0-9.9,0.3-11.8,0.3l0,0c-3.7,0-7.9-0.1-11.1-0.3l0,0c2.3,0.3,3.8,0.6,4.7,2l0,0c1.1,1.7,1.1,4.4,1.1,10l0,0v21.7
					c0,5.6-0.1,8.3-1.1,10l0,0c-1.1,1.6-3.1,1.8-6.4,2.1l0,0l0,0l0,0c3.2-0.3,7.8-0.5,12.1-0.5l0,0c1.9,0,8.8,0.3,11.4,0.3l0,0v0.4
					v0.4c-2.7,0-9.6-0.3-11.4-0.3l0,0c-4.5,0-9.1,0.1-12.2,0.5l0,0h-0.1l0,0C425.2,50.1,425.1,49.6,425.1,49.4L425.1,49.4z
					 M425.7,49.3L425.7,49.3L425.7,49.3L425.7,49.3z M440.9,46.8c-1.9-1.3-2.2-3.5-2.2-7.1l0,0V15.4c0-5.5,0.2-7.9,0.7-10.3l0,0
					l0.1-0.3h0.3c1.3-0.1,2.9-0.4,8.4-0.4l0,0v0.4v0.4c-5.1,0-6.7,0.2-8,0.3l0,0c-0.4,2.3-0.6,4.6-0.6,9.9l0,0v24.3
					c0,3.6,0.3,5.4,1.8,6.4l0,0c1.5,1,4.6,1.3,10.3,1.3l0,0c10.9,0,19.3-7.1,19.3-19.5l0,0c0-15.1-8.7-22.6-22.8-22.7l0,0V4.8V4.4
					c7.2,0,13.1,2,17.2,5.9l0,0c4.1,4,6.4,9.9,6.4,17.6l0,0c0,6.4-2.2,11.5-5.8,15l0,0c-3.6,3.5-8.7,5.3-14.3,5.3l0,0
					C446,48.2,442.8,48.1,440.9,46.8L440.9,46.8z"/>
			</g>
			<g>
				<path class="st0" d="M534.5,49.7c-2.4-0.3-5.6-0.5-8.8-0.5c-4.5,0-8.5,0.2-11.7,0.5c-0.4,0.1-0.2-0.8-0.1-0.9
					c3.8-0.3,5.6-0.5,5.6-2.5c0-2.2-1.5-5.6-2.9-9.2l-2.4-5.9h-17.6l-2.7,5.9c-2,4.3-3.4,7.1-3.4,9.2c0,1.7,1.6,2.2,5.2,2.5
					c0.2,0.1,0.4,0.9,0,0.9c-2.3-0.3-4.1-0.5-7.4-0.5c-4.5,0-4.5,0.2-7.8,0.5c-0.4,0.1-0.2-0.8-0.1-0.9c5.3-0.3,7.3-3.4,11.1-11.7
					L508,2.2c0.2-0.3,0.8-0.3,0.9,0L523,37.1c3.5,8.9,4.9,11.3,11.4,11.7C534.7,48.9,534.9,49.8,534.5,49.7z M506.3,10.4l-8.9,19.3
					h16.4L506.3,10.4z"/>
				<path class="st0" d="M513.4,49.4c0.1-0.3,0-0.6,0.4-0.9l0,0h0.1h0.1c1.9-0.2,3.3-0.3,4.1-0.6l0,0c0.8-0.3,1.1-0.6,1.1-1.5l0,0
					c0-2-1.4-5.4-2.9-9l0,0l-2.3-5.7h-17.1l-2.6,5.7c-2,4.3-3.4,7.2-3.3,9l0,0c0,0.7,0.2,1.1,1,1.4l0,0c0.8,0.3,2,0.5,3.8,0.7l0,0
					l0,0l0,0c0.5,0.3,0.5,0.6,0.5,1l0,0c0,0.2-0.1,0.7-0.6,0.7l0,0c0,0,0,0-0.1,0l0,0c-2.4-0.3-4.1-0.5-7.3-0.5l0,0
					c-4.5,0-4.5,0.1-7.7,0.5l0,0h-0.1l0,0c-0.6,0-0.6-0.6-0.6-0.8l0,0c0.1-0.3,0-0.6,0.4-0.9l0,0h0.1h0.1c5-0.4,6.9-3.1,10.8-11.5
					l0,0l16.5-34.9c0.2-0.4,0.6-0.4,0.8-0.4l0,0c0.3,0,0.6,0.1,0.9,0.5l0,0L523.6,37c3.6,8.9,4.7,11,11,11.4l0,0h0.1h0.1
					c0.4,0.3,0.4,0.6,0.4,0.9l0,0c0,0.2-0.2,0.7-0.6,0.7l0,0h-0.1l0,0v-0.4V50c-2.3-0.3-5.5-0.5-8.7-0.5l0,0
					c-4.5,0-8.4,0.1-11.6,0.5l0,0h-0.1l0,0C513.4,50.1,513.4,49.6,513.4,49.4L513.4,49.4z M495.7,49.3L495.7,49.3L495.7,49.3
					L495.7,49.3L495.7,49.3z M514.2,49.3c3.2-0.3,7.1-0.5,11.5-0.5l0,0c3.1,0,6.3,0.2,8.6,0.5l0,0l0,0l0,0
					c-6.4-0.4-8.1-3.2-11.5-11.9l0,0L508.7,2.5l0,0h-0.1l0,0h-0.1l0,0l0,0l0,0l0,0l0,0L492,37.3c-3.7,8.2-5.9,11.5-11.2,11.9l0,0
					l0,0l0,0c3-0.3,3.2-0.5,7.6-0.5l0,0c2.4,0,4,0.1,5.7,0.3l0,0c-1-0.1-1.8-0.3-2.4-0.6l0,0c-0.9-0.4-1.5-1.2-1.5-2.2l0,0
					c0-2.2,1.5-5,3.4-9.3l0,0l2.9-6.2h18.2L517,37c1.4,3.6,2.9,7,2.9,9.3l0,0c0,1.1-0.6,1.9-1.6,2.3l0,0
					C517.3,48.9,516,49.1,514.2,49.3L514.2,49.3C514.2,49.2,514.2,49.3,514.2,49.3L514.2,49.3z M495.5,49.3L495.5,49.3L495.5,49.3
					c-0.3,0-0.5-0.1-0.7-0.1l0,0C495,49.2,495.2,49.2,495.5,49.3L495.5,49.3z M496.7,30.2l9.2-19.9l0.4-0.9l8,20.8H496.7L496.7,30.2
					z M498,29.4h15.1l-6.9-17.9L498,29.4L498,29.4z M505.9,10.6l0.4-0.2L505.9,10.6L505.9,10.6z M508.5,2.5L508.5,2.5L508.5,2.5
					L508.5,2.5z"/>
			</g>
			<g>
				<path class="st0" d="M582.6,7c0,1.2,0.1,2.9,0.2,3.8c0,0.2-0.9,0.1-0.9,0c-0.6-3.2-1.9-5.1-12.1-5.1h-8.3v31.4
					c0,10.7,0.1,11.2,7.4,11.7c0.2,0.1,0.4,0.9-0.1,0.9c-2.4-0.3-6.2-0.5-9.4-0.5c-4.5,0-8,0.2-11.3,0.5c-0.4,0.1-0.2-0.8,0-0.9
					c7-0.6,7.3-0.6,7.3-11.7V5.7h-8.6c-9.9,0-11.5,1.7-12.4,5.1c0,0.1-0.9,0.2-0.9,0c0.3-1.5,0.4-4,0.4-6.1c0-1.3-0.2-2.7-0.4-3.8
					c0-0.2,0.9-0.1,0.9,0c0.5,2.5,0.9,2.7,12.3,2.7h23c11.4,0,12-0.2,12.6-2.7c0-0.1,0.9-0.2,0.9,0C582.9,2.6,582.6,4.5,582.6,7z"/>
				<path class="st0" d="M547.5,49.4c0.1-0.4,0-0.7,0.6-1l0,0c3.5-0.3,5.2-0.5,6-1.7l0,0c0.8-1.2,1-4,0.9-9.5l0,0v-31h-8.2
					c-9.9,0.1-11.1,1.5-12,4.7l0,0l0,0c-0.1,0.4-0.3,0.3-0.3,0.3l0,0c-0.1,0-0.1,0-0.2,0l0,0c-0.1,0-0.3,0-0.4,0l0,0
					c-0.1,0-0.2,0-0.3,0l0,0c-0.1,0-0.3,0-0.4-0.5l0,0c0-0.1,0-0.1,0-0.2l0,0c0.3-1.5,0.4-3.9,0.4-5.9l0,0c0-1.3-0.1-2.6-0.4-3.7
					l0,0l0,0l0,0c0.2-0.7,0.6-0.5,0.7-0.5l0,0c0.3,0,0.5,0,0.7,0.1l0,0c0,0.1,0.2-0.1,0.3,0.3l0,0l0,0c0.3,1.2,0.3,1.6,1.8,2l0,0
					c1.5,0.4,4.4,0.4,10.1,0.4l0,0h23c5.7,0,8.7-0.1,10.3-0.4l0,0c1.5-0.4,1.6-0.8,2-2l0,0l0,0c0.1-0.4,0.3-0.3,0.3-0.3l0,0
					c0.1,0,0.1,0,0.2-0.1l0,0c0.1,0,0.3,0,0.5,0l0,0c0.1,0,0.2,0,0.3,0l0,0c0.1,0,0.4,0.1,0.4,0.5l0,0l0,0V1l0,0
					c-0.5,1.7-0.8,3.6-0.8,6l0,0c0,1.1,0.1,2.9,0.2,3.8l0,0c-0.1,0.5-0.4,0.4-0.4,0.5l0,0c-0.1,0-0.2,0-0.3,0l0,0
					c-0.2,0-0.5,0-0.6-0.1l0,0c0,0,0,0-0.1,0l0,0c-0.1,0-0.2,0-0.3-0.3l0,0c-0.7-3.1-1.4-4.6-11.7-4.7l0,0h-7.9v31
					c0,5.3,0.1,8.1,0.9,9.5l0,0c0.8,1.3,2.4,1.6,6.1,1.8l0,0l0,0l0,0c0.5,0.3,0.5,0.6,0.5,0.9l0,0c0,0.2-0.2,0.8-0.7,0.8l0,0h-0.1
					l0,0c-2.3-0.3-6.2-0.5-9.4-0.5l0,0c-4.5,0-8,0.1-11.2,0.5l0,0h-0.1l0,0C547.6,50.1,547.5,49.6,547.5,49.4L547.5,49.4z
					 M548.1,49.4L548.1,49.4L548.1,49.4L548.1,49.4z M568.7,49.3L568.7,49.3L568.7,49.3c-0.4-0.1-0.7-0.1-1.1-0.1l0,0
					C568,49.2,568.4,49.2,568.7,49.3L568.7,49.3z M548.3,49.3c3.2-0.3,6.7-0.5,11.1-0.5l0,0c2.5,0,5.3,0.1,7.6,0.3l0,0
					c-2.5-0.2-4-0.6-4.9-2.1l0,0c-1-1.7-1-4.5-1-9.9l0,0V5.3h8.7c9.8-0.1,11.8,1.8,12.4,5.1l0,0h0.1l0,0c-0.1-1-0.2-2.5-0.2-3.5l0,0
					c0-2.3,0.3-4.1,0.6-5.7l0,0l0,0l0,0c-0.3,1.2-0.9,2.1-2.5,2.4l0,0C578.5,4,575.5,4,569.8,4l0,0h-23c-5.7,0-8.6-0.1-10.3-0.5l0,0
					c-1.6-0.3-2.1-1.3-2.4-2.4l0,0H534l0,0c0.2,1,0.3,2.3,0.3,3.4l0,0c0,1.9-0.1,4.1-0.3,5.7l0,0l0,0l0,0c0.9-3.4,3.1-5.2,12.7-5.1
					l0,0h9v31.8c0,5.6,0,8.3-1.1,10l0,0C553.6,48.8,551.6,48.9,548.3,49.3L548.3,49.3C548.3,49.2,548.3,49.3,548.3,49.3L548.3,49.3z
					"/>
			</g>
			<g>
				<path class="st0" d="M602.3,49.2c-4.5,0-8,0.2-11.2,0.5c-0.5,0.1-0.2-0.8-0.1-0.9c7-0.6,7.4-0.6,7.4-11.7V15.5
					c0-11.1-0.4-11-7.4-11.8c-0.2,0-0.4-0.9,0.1-0.8c3.2,0.4,6.7,0.5,11.2,0.5c3.2,0,7.1-0.2,9.5-0.5c0.4-0.1,0.2,0.8,0,0.8
					c-7.2,0.6-7.3,1.1-7.3,11.8v21.7c0,10.7,0.1,11.2,7.3,11.7c0.2,0.1,0.4,0.9,0,0.9C609.5,49.4,605.6,49.2,602.3,49.2z"/>
				<path class="st0" d="M590.4,49.4c0.1-0.4,0-0.6,0.5-0.9l0,0l0,0h0.1c3.5-0.3,5.2-0.5,6-1.7l0,0c0.9-1.2,1-4,1-9.5l0,0V15.5
					c0-5.5-0.1-8.3-1-9.5l0,0c-0.8-1.2-2.5-1.5-6-1.8l0,0c-0.5-0.1-0.4-0.3-0.5-0.4l0,0c-0.1-0.1-0.1-0.3-0.1-0.5l0,0
					c0-0.2,0.2-0.7,0.6-0.7l0,0h0.1l0,0c3.2,0.4,6.7,0.5,11.2,0.5l0,0c3.2,0,7.1-0.2,9.4-0.5l0,0h0.1l0,0c0.5,0,0.6,0.5,0.6,0.7l0,0
					c-0.1,0.3,0,0.7-0.6,0.9l0,0c-3.6,0.3-5.3,0.6-6,1.9l0,0c-0.8,1.3-0.9,4.1-0.9,9.5l0,0v21.7c0,5.3,0.1,8.1,0.9,9.5l0,0
					c0.7,1.3,2.4,1.6,6,1.8l0,0h0.1l0,0c0.5,0.3,0.5,0.6,0.5,1l0,0c0,0.2-0.1,0.7-0.6,0.7l0,0h-0.1l0,0c-2.3-0.3-6.2-0.5-9.4-0.5
					l0,0v-0.4V49c2.4,0,5.1,0.1,7.3,0.3l0,0c-2.3-0.2-3.7-0.7-4.6-2l0,0c-1-1.7-1-4.5-1-9.9l0,0V15.5c0-5.3,0-8.2,1-9.9l0,0
					c0.7-1.2,1.9-1.7,3.7-2l0,0c-2.1,0.1-4.4,0.2-6.5,0.2l0,0c-3.4,0-6.3-0.1-9-0.3l0,0c2.1,0.3,3.5,0.7,4.3,1.9l0,0
					c1.1,1.7,1.1,4.5,1.1,10l0,0v21.7c0,5.6-0.1,8.3-1.1,10l0,0c-1.1,1.6-3.1,1.8-6.4,2.1l0,0l0,0l0,0c3.2-0.3,6.7-0.5,11.1-0.5l0,0
					v0.4v0.4c-4.5,0-8,0.1-11.1,0.5l0,0H591l0,0C590.6,50.1,590.4,49.6,590.4,49.4L590.4,49.4z M591.1,49.3L591.1,49.3L591.1,49.3
					L591.1,49.3z M611.6,49.3L611.6,49.3L611.6,49.3c-0.2,0-0.4-0.1-0.6-0.1l0,0C611.2,49.2,611.4,49.2,611.6,49.3L611.6,49.3z"/>
			</g>
			<g>
				<path class="st0" d="M648.3,50.7c-16,0-27-11.3-27-23.6c0-11.8,11.8-25.1,28.4-25.1c16.1,0,27,11.3,27,23.5
					C676.8,37.4,665,50.7,648.3,50.7z M648,3.7c-11.7,0-20.3,7.8-20.3,21c0,16,11.4,24.3,22.4,24.3c11.7,0,20.3-7.8,20.3-21
					C670.4,12,659,3.7,648,3.7z"/>
				<path class="st0" d="M621,27c0-12.1,11.9-25.5,28.8-25.5l0,0c16.3,0,27.4,11.4,27.4,23.9l0,0c0,12.2-11.9,25.5-28.9,25.5l0,0
					v-0.4v-0.4c16.5,0,28-13.1,28-24.7l0,0c0-12-10.7-23.1-26.6-23.1l0,0c-16.4,0-27.9,13.1-27.9,24.6l0,0
					c0,12.1,10.8,23.2,26.5,23.2l0,0v0.4v0.4C632.2,51,621,39.6,621,27L621,27z M627.3,24.7c0-6.7,2.2-12.1,5.9-15.8l0,0
					c3.7-3.7,8.9-5.7,14.8-5.7l0,0v0.4V4c-11.5,0-19.8,7.6-19.9,20.6l0,0c0,15.8,11.1,23.9,22,23.9l0,0C661.6,48.5,670,41,670,28
					l0,0c0-15.8-11.2-23.9-22-23.9l0,0V3.6V3.2c11.2,0,22.8,8.5,22.8,24.7l0,0c0,6.7-2.2,12.1-5.9,15.8l0,0
					c-3.7,3.7-8.9,5.7-14.8,5.7l0,0C638.9,49.4,627.3,40.9,627.3,24.7L627.3,24.7z"/>
			</g>
			<g>
				<path class="st0" d="M733.8,15.5v21.7c0,3.6,0.2,10.2,0.6,13.2c0,0.2-0.6,0.3-0.9-0.1l-38.1-37.8v24.6c0,9.8,0.1,11.2,7.4,11.7
					c0.2,0.1,0.4,0.9-0.1,0.9c-2.4-0.3-4.5-0.5-7.7-0.5c-4.5,0-6.3,0.2-9.5,0.5c-0.5,0.1-0.2-0.8-0.1-0.9c7-0.6,7.4-1.4,7.4-11.7
					V11.8c0-3.3-5-7.7-8.8-8.1c-0.2,0-0.3-0.9,0.1-0.8c3.2,0.4,6.1,0.5,10.6,0.5l36.5,36.5V15.5c0-10.3-0.3-11-7.4-11.8
					c-0.2,0-0.3-0.9,0.1-0.8c3.2,0.4,5,0.5,9.5,0.5c3.2,0,5.3-0.2,7.7-0.5c0.5-0.1,0.3,0.8,0.1,0.8C733.9,4.3,733.8,5.7,733.8,15.5z
					"/>
				<path class="st0" d="M733.2,50.6l-37.4-37v23.6c0,4.9,0.1,7.7,0.9,9.1l0,0c0.8,1.4,2.4,1.9,6.1,2.1l0,0h0.1h0.1
					c0.4,0.3,0.4,0.6,0.4,0.9l0,0c0,0.2-0.2,0.7-0.6,0.7l0,0h-0.1l0,0c-2.3-0.3-4.4-0.5-7.6-0.5l0,0c-4.5,0-6.2,0.1-9.4,0.5l0,0
					h-0.1l0,0c-0.5,0-0.6-0.5-0.6-0.7l0,0c0.1-0.4,0-0.6,0.5-0.9l0,0h0.1h0.1c3.5-0.3,5.2-0.7,6-2.1l0,0c0.9-1.4,1-4.1,1-9.2l0,0
					V11.8c0.1-2.9-4.9-7.3-8.4-7.7l0,0c-0.5-0.1-0.4-0.3-0.5-0.4l0,0c0-0.1-0.1-0.3-0.1-0.5l0,0c0-0.2,0.1-0.7,0.6-0.8l0,0h0.1l0,0
					c3.2,0.4,6.1,0.5,10.5,0.5l0,0h0.2L731,38.8V15.5c0-5.1-0.1-7.9-1-9.2l0,0c-0.8-1.4-2.5-1.8-6-2.1l0,0c-0.5-0.1-0.4-0.3-0.5-0.4
					l0,0c-0.1-0.1-0.1-0.3-0.1-0.5l0,0c0-0.2,0.1-0.7,0.6-0.8l0,0h0.1l0,0c3.2,0.4,5,0.5,9.4,0.5l0,0c3.2,0,5.3-0.2,7.6-0.5l0,0h0.1
					l0,0c0.5,0,0.7,0.5,0.7,0.8l0,0c-0.1,0.3,0,0.7-0.6,0.9l0,0c-3.7,0.3-5.3,0.8-6.1,2.2l0,0c-0.8,1.5-0.9,4.2-0.9,9.1l0,0v21.7
					c0,3.6,0.2,10.2,0.6,13.2l0,0c-0.1,0.6-0.5,0.6-0.8,0.6l0,0C733.8,51,733.5,50.9,733.2,50.6L733.2,50.6z M733.8,50
					c0,0,0.1,0.1,0.2,0.1l0,0c-0.4-3.2-0.6-9.4-0.6-13l0,0V15.5c0-4.9,0-7.7,1-9.5l0,0c0.7-1.3,2-1.9,3.9-2.3l0,0
					c-1.4,0.1-2.9,0.2-4.9,0.2l0,0c-3.4,0-5.3-0.1-7.4-0.3l0,0c2.2,0.3,3.7,0.9,4.5,2.3l0,0c1.1,1.8,1.1,4.5,1.1,9.7l0,0V41
					l-37-37.1c-4.1,0-6.9-0.1-9.9-0.4l0,0c3.9,0.8,8.5,4.9,8.6,8.4l0,0v25.3c0,5.1-0.1,7.9-1.1,9.7l0,0c-1.1,1.7-3.1,2.1-6.4,2.4
					l0,0l0,0l0,0c3.1-0.3,4.9-0.5,9.3-0.5l0,0c2.2,0,4,0.1,5.6,0.3l0,0c-2.3-0.3-3.8-0.9-4.6-2.4l0,0c-1-1.8-1-4.6-1-9.5l0,0V11.5
					L733.8,50L733.8,50z M685.5,49.3L685.5,49.3L685.5,49.3L685.5,49.3L685.5,49.3z M702.6,49.3L702.6,49.3L702.6,49.3
					c-0.2,0-0.4-0.1-0.7-0.1l0,0C702.1,49.2,702.3,49.2,702.6,49.3L702.6,49.3z"/>
			</g>
			<g>
				<path class="st0" d="M764.2,50.7c-5.3,0-9.6-1.6-13.6-4.8c-0.4-0.4,0.3-4.3,0.5-9.3c0-0.2,0.9-0.2,0.9-0.1
					c0.5,7.5,4.9,12.5,12.9,12.5c5.3,0,10.3-2.8,10.3-8.7c0-12-22.9-12.1-22.9-25.2C752.3,8.6,758.4,2,767,2c4.4,0,7.3,0.9,9.9,2.2
					c0.6,0.3,0.9,3,0.9,7.7c0,0.2-0.9,0.2-0.9,0.1c-0.9-5.4-4.8-8.3-10.4-8.3c-5,0-9.5,3-9.5,7.6c0,11.5,22.5,11.3,22.5,25.1
					C779.5,44.1,773.2,50.7,764.2,50.7z"/>
				<path class="st0" d="M750.2,46.2c-0.3-0.4-0.2-0.6-0.3-1l0,0c0-1.5,0.5-4.7,0.6-8.6l0,0c0.1-0.5,0.4-0.5,0.5-0.5l0,0
					c0.2,0,0.3-0.1,0.5-0.1l0,0c0.1,0,0.2,0,0.4,0l0,0c0.1,0.1,0.3,0,0.4,0.5l0,0c0.6,7.4,4.6,12.1,12.5,12.1l0,0
					c5.2,0,9.9-2.7,9.9-8.3l0,0c0-5.7-5.5-8.6-11.2-11.8l0,0c-5.7-3.2-11.6-6.5-11.6-13.4l0,0c0-6.8,6.3-13.5,15.1-13.5l0,0
					c4.4,0,7.4,0.9,10.1,2.3l0,0c0.6,0.4,0.7,1.2,0.9,2.5l0,0c0.2,1.3,0.3,3.2,0.3,5.5l0,0c-0.1,0.4-0.3,0.5-0.5,0.5l0,0
					c-0.2,0-0.3,0.1-0.5,0.1l0,0c-0.1,0-0.1,0-0.2,0l0,0c-0.2,0-0.3,0-0.6-0.3l0,0v-0.1V12c-0.9-5.2-4.5-7.9-10-7.9l0,0
					c-4.9,0-9.1,2.8-9.1,7.2l0,0c0,5.4,5.4,8.2,11,11.3l0,0c5.6,3.1,11.5,6.6,11.5,13.8l0,0c0,8-6.6,14.8-15.8,14.8l0,0v-0.4v-0.4
					c8.8,0,14.9-6.4,14.9-14l0,0c0-6.6-5.4-9.9-11-13l0,0c-5.6-3.1-11.4-6-11.5-12l0,0c0-4.9,4.8-8,9.9-8l0,0c5.7,0,9.8,3,10.8,8.4
					l0,0l0,0l0,0h0.1l0,0c0-4.2-0.4-6.8-0.7-7l0,0l0,0c-2.5-1.3-5.3-2.2-9.7-2.2l0,0c-8.4,0-14.3,6.4-14.3,12.7l0,0
					c0,6.3,5.5,9.5,11.2,12.7l0,0c5.7,3.2,11.6,6.2,11.7,12.5l0,0c0,6.2-5.3,9.1-10.8,9.1l0,0c-8.1,0-12.7-5.1-13.3-12.6l0,0l0,0
					l0,0h-0.1l0,0c-0.1,3.8-0.6,7.1-0.6,8.4l0,0c0,0.2,0,0.3,0,0.4l0,0c3.9,3.1,8.1,4.6,13.3,4.6l0,0v0.4v0.4l0,0l0,0
					C758.7,51.1,754.3,49.4,750.2,46.2L750.2,46.2z M750.9,45.7L750.9,45.7L750.9,45.7L750.9,45.7z"/>
			</g>
		</g>
		<g>
			<g>
				<path class="st0" d="M221.9,98c-10.6,0-15.9-6.8-17.9-13.6c-1.1,0.2-2.7,0.3-3.7,0.3s-1.2,0-2-0.1v5.2c0,6.4,0,6.7,4.4,7
					c0.1,0,0.2,0.6,0,0.5c-1.4-0.2-3.7-0.3-5.7-0.3c-2.7,0-4.8,0.1-6.7,0.3c-0.2,0.1-0.1-0.5,0-0.5c4.2-0.4,4.4-0.3,4.4-7v-13
					c0-5-0.1-6.5-2.8-6.5c-0.5,0-1.1,0.1-1.7,0.2c-0.1,0-0.3-0.4,0-0.5c1.9-0.6,6.4-0.7,11.4-0.7c6.6,0,11.9,1.9,11.9,6.6
					c0,2.4-1.6,5.9-6.4,7.7c2.4,6.3,9.7,13.9,14.9,13.9C222.1,97.5,222.2,98,221.9,98z M200.9,70.1c-0.8,0-1.3,0.1-2.1,0.1
					c-0.3,0.9-0.4,2.9-0.4,6.2v7.3c0.7,0,1.1,0,1.9,0c6.9,0,9.4-2.4,9.4-6.1C209.7,71.7,205.5,70.1,200.9,70.1z"/>
				<path class="st0" d="M203.9,84.5c-1.1,0.2-2.6,0.3-3.5,0.3l0,0c-0.9,0-1.2,0-1.8-0.1l0,0v5c0.1,6.4-0.1,6.5,4.3,6.8l0,0
					c0.2,0.1,0.2,0.3,0.2,0.5l0,0c0,0.1-0.1,0.4-0.3,0.4l0,0c0,0,0,0-0.1,0l0,0c-1.4-0.2-3.7-0.3-5.6-0.3l0,0
					c-2.7,0-4.8,0.1-6.7,0.3l0,0c0,0,0,0-0.1,0l0,0c-0.2,0-0.3-0.3-0.3-0.4l0,0c0-0.2,0-0.3,0.3-0.5l0,0c4.2-0.5,4.2-0.1,4.3-6.8
					l0,0v-13c0-5.1-0.1-6.4-2.6-6.4l0,0c-0.5,0-1.1,0.1-1.7,0.2l0,0c-0.3,0-0.3-0.3-0.3-0.5l0,0c0-0.1,0.1-0.3,0.3-0.4l0,0
					c1.9-0.6,6.4-0.7,11.4-0.7l0,0c6.6,0,12.1,1.9,12.1,6.7l0,0c0,2.5-1.6,6-6.3,7.8l0,0c2.5,6.2,9.7,13.7,14.7,13.6l0,0
					c0.3,0.1,0.2,0.3,0.3,0.5l0,0c0,0.1-0.1,0.4-0.3,0.4l0,0V98v-0.2V98v0.2C211.3,98.1,205.9,91.4,203.9,84.5L203.9,84.5z
					 M204.2,84.3c2,6.8,7.2,13.5,17.8,13.5l0,0l0,0l0,0v-0.1l0,0c-5.3-0.1-12.5-7.7-15-14l0,0l-0.1-0.2l0.2-0.1
					c4.7-1.8,6.3-5.2,6.3-7.6l0,0c0-4.5-5.2-6.4-11.7-6.4l0,0c-5,0-9.5,0.1-11.3,0.7l0,0c0,0,0,0,0,0.1l0,0v0.1l0,0l0,0
					c0.6-0.1,1.2-0.2,1.7-0.2l0,0c2.8,0,3,1.7,3,6.7l0,0v13c0.1,6.6-0.3,6.8-4.5,7.2l0,0l0,0v0.1l0,0l0,0l0,0c1.9-0.2,4-0.3,6.7-0.3
					l0,0c2,0,4.3,0.1,5.7,0.3l0,0l0,0l0,0l0,0l0,0c0,0,0-0.1,0-0.2l0,0l0,0l0,0c-4.3-0.2-4.6-0.9-4.5-7.2l0,0v-5.4h0.2
					c0.8,0.1,0.9,0.1,2,0.1l0,0c1,0,2.5-0.1,3.6-0.3l0,0h0.1L204.2,84.3L204.2,84.3z M198.4,83.9h-0.2v-7.5c0-3.3,0.1-5.3,0.4-6.2
					l0,0v-0.1h0.1c0.8,0,1.4-0.1,2.1-0.1l0,0v0.2v0.2c-0.7,0-1.3,0-2,0.1l0,0c-0.2,0.9-0.4,2.9-0.4,6l0,0v7.1c0.6,0,1,0,1.8,0l0,0
					c6.9,0,9.2-2.3,9.2-5.9l0,0c0-5.9-4-7.3-8.6-7.3l0,0v-0.2V70c4.6,0,8.9,1.6,8.9,7.7l0,0c0,3.8-2.6,6.3-9.5,6.3l0,0
					C199.4,83.9,199.1,83.9,198.4,83.9L198.4,83.9z"/>
			</g>
			<g>
				<path class="st0" d="M248.3,96.5c-0.2,0.7-0.4,0.8-1.1,0.8c-1.7,0-4.6-0.2-8-0.2c-4.6,0-9.3,0.1-12.6,0.3
					c-0.3,0.1-0.1-0.5,0-0.5c4.7-0.5,4.8-0.3,4.8-7v-13c0-6.7-0.1-6.5-4.8-7c-0.1,0-0.2-0.5,0-0.5c3.3,0.2,7.8,0.3,12.4,0.3
					c3.4,0,6.5-0.1,9-0.3c-0.2,0.6-0.3,1.4-0.3,2.3c0,0.4,0,1.3,0.1,1.6c0,0.1-0.6,0.1-0.6,0c-0.4-1.9-1.3-2.6-7.4-2.6h-4.5
					c-0.2,1.1-0.3,3.1-0.3,5.9v5.7h4.9c5.2,0,4.8-0.4,5.1-1.6c0,0,0.6-0.1,0.6,0c-0.2,0.6-0.3,1.7-0.3,2.7c0,0.5,0,1.4,0.1,1.7
					c0,0.1-0.5,0.1-0.5,0c-0.3-1.4-0.5-2-4.9-2h-5v6.4c0,5.8,0.9,6.3,3,6.3h2.4c7.1,0,7.6-0.6,8.2-3.5c0,0,0.6,0,0.6,0.1
					C249,93.6,248.6,95.5,248.3,96.5z"/>
				<path class="st0" d="M226.3,97.1c0-0.2,0-0.4,0.3-0.5l0,0c4.7-0.5,4.6-0.1,4.7-6.8l0,0v-13c-0.1-6.8,0.1-6.3-4.7-6.9l0,0
					c-0.3-0.1-0.2-0.3-0.3-0.5l0,0c0-0.1,0.1-0.4,0.3-0.4l0,0h0.1l0,0c3.3,0.2,7.8,0.3,12.4,0.3l0,0c3.4,0,6.5-0.1,9-0.3l0,0h0.2
					l-0.1,0.2c-0.2,0.6-0.3,1.4-0.3,2.3l0,0c0,0.4,0,1.3,0.1,1.6l0,0c-0.1,0.3-0.3,0.2-0.4,0.3l0,0c-0.1,0-0.2,0-0.3,0l0,0
					c-0.1-0.1-0.2,0-0.2-0.2l0,0c-0.4-1.8-1.1-2.4-7.2-2.5l0,0h-4.4c-0.2,1.1-0.3,3.1-0.3,5.8l0,0V82h4.7c5.2-0.1,4.6-0.3,5-1.6l0,0
					c0.2-0.1,0.3-0.1,0.5-0.1l0,0c0.1,0,0.1,0,0.2,0l0,0c0,0,0.2,0,0.2,0.2l0,0c0,0,0,0,0,0.1l0,0c-0.2,0.6-0.3,1.7-0.3,2.7l0,0
					c0,0.5,0.1,1.4,0.1,1.7l0,0v0.1l0,0c-0.1,0.2-0.3,0.2-0.4,0.2l0,0c-0.1,0-0.2,0-0.3,0l0,0c-0.1,0-0.2,0-0.2-0.2l0,0
					c-0.3-1.3-0.3-1.8-4.7-1.8l0,0h-4.7v6.2c0.1,5.8,0.8,6.1,2.8,6.2l0,0h2.4c7.2-0.1,7.4-0.6,8.1-3.5l0,0c0.1-0.1,0.2-0.1,0.2-0.1
					l0,0h0.1l0,0c0.2,0,0.4-0.1,0.5,0.3l0,0c-0.2,1.1-0.6,3.1-0.9,4l0,0h-0.2l0.2,0.1c-0.2,0.7-0.6,0.9-1.3,0.9l0,0
					c-1.7,0-4.6-0.2-8-0.2l0,0c-4.6,0-9.3,0.1-12.6,0.3l0,0l0,0l0,0C226.3,97.5,226.3,97.3,226.3,97.1L226.3,97.1z M231.5,76.8v13
					c0.1,6.7-0.3,6.8-4.9,7.2l0,0l0,0c0,0,0,0.1,0,0.2l0,0l0,0l0,0l0,0l0,0c3.3-0.2,8-0.3,12.6-0.3l0,0c3.4,0,6.3,0.2,8,0.2l0,0
					c0.7,0,0.7,0,1-0.7l0,0l0,0c0.3-0.9,0.7-2.8,0.9-3.8l0,0c-0.1,0-0.1,0-0.2,0l0,0c0,0,0,0-0.1,0l0,0c-0.6,2.9-1.3,3.6-8.3,3.6
					l0,0H238c-1.1,0-1.9-0.1-2.5-1.1l0,0c-0.5-0.9-0.7-2.5-0.7-5.4l0,0V83h5c4.2-0.1,4.8,0.7,5,2l0,0c0,0,0.1,0,0.2,0l0,0l0,0l0,0
					c0-0.4-0.1-1.2-0.1-1.6l0,0c0-0.9,0.1-2,0.3-2.6l0,0c-0.1,0-0.2,0-0.2,0l0,0c-0.2,1.1-0.2,1.7-5.2,1.6l0,0h-5v-5.9
					c0-2.8,0.1-4.8,0.3-6l0,0v-0.1h4.6c6,0,7.2,0.7,7.6,2.7l0,0c0,0,0.1,0,0.2,0l0,0h0.1l0,0c0-0.4-0.1-1.2-0.1-1.6l0,0
					c0-0.8,0.1-1.6,0.2-2.2l0,0c-2.4,0.2-5.5,0.3-8.7,0.3l0,0c-4.6,0-9.1-0.1-12.5-0.3l0,0l0,0l0,0l0,0v0.1l0,0
					C231.3,70.1,231.6,70.2,231.5,76.8L231.5,76.8z M248.7,92.5L248.7,92.5L248.7,92.5L248.7,92.5z"/>
			</g>
			<g>
				<path class="st0" d="M286.3,95.6c-1.6,1.2-4.5,2.3-10,2.3c-10.4,0-16.9-6.6-16.9-14c0-7.1,7.1-15.1,17.1-15.1
					c4.3,0,8.7,1.6,9.7,2.3c0.4,0.2,0.8,3.3,0.8,5.9c0,0.1-0.5,0.1-0.5,0c-0.8-3.4-4.2-7.2-11.1-7.2s-12.1,4.6-12.1,12.5
					c0,9.6,6.8,14.6,13.5,14.6c4.8,0,9.6-2.8,9.9-7.3c0-0.1,0.6-0.1,0.6,0.1C287.1,92.3,286.7,95.3,286.3,95.6z"/>
				<path class="st0" d="M259.2,83.9c0-7.2,7.2-15.3,17.3-15.3l0,0c4.3,0,8.8,1.6,9.7,2.3l0,0c0.5,0.4,0.8,3.4,0.9,6l0,0V77l0,0
					c-0.1,0.3-0.2,0.3-0.3,0.3l0,0h-0.1l0,0c-0.1,0-0.1,0-0.2,0l0,0c-0.1,0-0.2,0-0.2-0.2l0,0c-0.8-3.3-4.1-7.1-10.9-7.1l0,0
					c-6.9,0-12,4.5-12,12.4l0,0c0,9.5,6.8,14.4,13.3,14.4l0,0c4.8,0,9.4-2.7,9.8-7.1l0,0c0-0.2,0.1-0.2,0.2-0.2l0,0
					c0.1,0,0.1,0,0.2,0l0,0c0.2,0,0.4,0,0.5,0.3l0,0c-0.2,2.7-0.4,5.6-1,6.1l0,0l0,0c-1.7,1.2-4.5,2.3-10.1,2.3l0,0
					C265.8,98,259.2,91.4,259.2,83.9L259.2,83.9z M276.5,68.9c-9.9,0-16.9,8-17,14.9l0,0c0,7.3,6.4,13.8,16.8,13.8l0,0
					c5.6,0,8.3-1.1,9.9-2.3l0,0l0.1,0.2l-0.1-0.2c0.2-0.1,0.7-3.2,0.8-5.7l0,0c0,0-0.1,0-0.2,0l0,0c0,0,0,0-0.1,0l0,0
					c-0.5,4.6-5.2,7.3-10.1,7.3l0,0c-6.7,0-13.6-5-13.6-14.7l0,0c0-8,5.3-12.7,12.3-12.7l0,0c6.9,0,10.3,3.8,11.2,7.3l0,0h0.1l0,0
					h0.1l0,0c-0.1-2.6-0.6-5.7-0.8-5.7l0,0C285.2,70.5,280.7,68.9,276.5,68.9L276.5,68.9L276.5,68.9L276.5,68.9z M286.9,77L286.9,77
					L286.9,77L286.9,77L286.9,77z"/>
			</g>
			<g>
				<path class="st0" d="M314.2,97.9c-9.6,0-16.1-6.7-16.1-14.1c0-7.1,7-15,17-15c9.6,0,16.2,6.7,16.2,14.1
					C331.3,90,324.2,97.9,314.2,97.9z M314,69.8c-7,0-12.1,4.7-12.1,12.6c0,9.6,6.8,14.6,13.4,14.6c7,0,12.1-4.7,12.1-12.6
					C327.5,74.7,320.6,69.8,314,69.8z"/>
				<path class="st0" d="M297.9,83.8c0-7.2,7.1-15.2,17.1-15.2l0,0c9.7,0,16.4,6.8,16.4,14.3l0,0c0,7.2-7.1,15.2-17.2,15.2l0,0v-0.2
					v-0.2c9.9,0,16.8-7.8,16.9-14.9l0,0c0-7.2-6.5-13.9-16-13.9l0,0c-9.8,0-16.8,7.8-16.8,14.8l0,0c0,7.3,6.5,13.9,16,14l0,0v0.2
					v0.2C304.6,98,297.9,91.2,297.9,83.8L297.9,83.8z M301.7,82.3c0-8,5.3-12.7,12.3-12.7l0,0v0.2V70c-6.9,0-12,4.6-12,12.4l0,0
					c0,9.5,6.7,14.4,13.2,14.4l0,0c6.9,0,12-4.6,12-12.4l0,0c0-9.5-6.8-14.4-13.3-14.4l0,0v-0.2v-0.2c6.7,0,13.6,5,13.6,14.7l0,0
					c0,8-5.2,12.7-12.3,12.7l0,0C308.6,97,301.7,92,301.7,82.3L301.7,82.3z"/>
			</g>
			<g>
				<path class="st0" d="M365.2,76.8l-9.9,20.9c-0.1,0.1-0.5,0.2-0.6,0l-9.3-20.8c-2.3-5.2-2.8-6.7-6.9-7c-0.1,0-0.2-0.5,0.1-0.5
					c1.4,0.2,3.3,0.3,5.2,0.3c2.7,0,5.1-0.1,7-0.3c0.2,0,0.1,0.5,0,0.5c-2.2,0.3-3.3,0.3-3.3,1.5c0,0.8,0.7,2.7,1.9,5.5l7,15.9
					l7.4-15.9c1.5-3.2,2-4.5,2-5.5s-0.9-1.4-3.1-1.5c-0.1,0-0.2-0.5,0-0.5c1.4,0.2,2.4,0.3,4.4,0.3c2.7,0,2.7-0.1,4.6-0.3
					c0.3,0,0.2,0.5,0,0.5C368.4,70.1,367.7,71.3,365.2,76.8z"/>
				<path class="st0" d="M354.5,97.7l-9.3-20.8c-2.3-5.2-2.7-6.6-6.8-6.9l0,0c-0.3-0.1-0.2-0.3-0.3-0.4l0,0c0-0.1,0-0.3,0.3-0.4l0,0
					h0.1l0,0c1.4,0.2,3.3,0.3,5.2,0.3l0,0c2.7,0,5.1-0.1,7-0.3l0,0h0.1l0,0c0.2,0,0.3,0.2,0.3,0.3l0,0c0,0.2,0,0.4-0.3,0.5l0,0
					c-2.2,0.3-3.2,0.4-3.1,1.4l0,0c0,0.8,0.6,2.7,1.9,5.4l0,0l6.8,15.6l7.3-15.6c1.4-3.2,2-4.5,2-5.4l0,0c0-0.9-0.8-1.2-3-1.4l0,0
					c-0.3-0.1-0.2-0.3-0.3-0.5l0,0c0-0.1,0.1-0.3,0.3-0.3l0,0c0,0,0,0,0.1,0l0,0c1.4,0.2,2.4,0.3,4.4,0.3l0,0c2.7,0,2.6-0.1,4.5-0.3
					l0,0c0,0,0,0,0.1,0l0,0c0.2,0,0.3,0.2,0.3,0.4l0,0c0,0.2,0,0.4-0.3,0.4l0,0c-3.3,0.4-3.8,1.4-6.4,6.9l0,0l-0.2-0.1l0.2,0.1
					l-9.9,20.9c-0.1,0.1-0.3,0.2-0.4,0.2l0,0l0,0l0,0C354.8,98,354.6,97.9,354.5,97.7L354.5,97.7z M345.6,76.8l9.3,20.8
					c0,0,0,0,0.1,0l0,0h0.1l0,0c0,0,0.1,0,0,0l0,0l9.9-20.9c2.5-5.5,3.3-6.8,6.7-7.1l0,0v-0.1l0,0l0,0l0,0c-1.9,0.2-1.9,0.3-4.6,0.3
					l0,0c-2,0-3-0.1-4.5-0.3l0,0l0,0l0,0l0,0c0,0.1,0,0.1,0,0.1l0,0c2.1,0.2,3.2,0.5,3.2,1.7l0,0c0,1.1-0.5,2.4-2,5.5l0,0l-7.6,16.3
					l-7.1-16.3c-1.2-2.8-1.9-4.7-1.9-5.5l0,0c0-1.4,1.2-1.5,3.4-1.7l0,0l0,0v-0.1l0,0c-1.9,0.2-4.4,0.3-7,0.3l0,0
					c-1.9,0-3.8-0.1-5.2-0.3l0,0l0,0l0,0v0.1l0,0C342.7,70,343.3,71.6,345.6,76.8L345.6,76.8z M371.7,69.6L371.7,69.6L371.7,69.6
					L371.7,69.6z M371.7,69.5L371.7,69.5L371.7,69.5L371.7,69.5L371.7,69.5L371.7,69.5z"/>
			</g>
			<g>
				<path class="st0" d="M400.3,96.5c-0.2,0.7-0.4,0.8-1.1,0.8c-1.7,0-4.6-0.2-8-0.2c-4.6,0-9.3,0.1-12.6,0.3
					c-0.3,0.1-0.1-0.5,0-0.5c4.7-0.5,4.8-0.3,4.8-7v-13c0-6.7-0.1-6.5-4.8-7c-0.1,0-0.2-0.5,0-0.5c3.3,0.2,7.8,0.3,12.4,0.3
					c3.4,0,6.5-0.1,9-0.3c-0.2,0.6-0.3,1.4-0.3,2.3c0,0.4,0,1.3,0.1,1.6c0,0.1-0.6,0.1-0.6,0c-0.4-1.9-1.3-2.6-7.4-2.6h-4.5
					c-0.2,1.1-0.3,3.1-0.3,5.9v5.7h4.9c5.2,0,4.8-0.4,5.1-1.6c0.1,0,0.6-0.1,0.6,0c-0.2,0.6-0.3,1.7-0.3,2.7c0,0.5,0,1.4,0.1,1.7
					c0.1,0.1-0.5,0.1-0.5,0c-0.3-1.4-0.5-2-4.9-2h-5v6.4c0,5.8,0.8,6.3,3,6.3h2.4c7.1,0,7.6-0.6,8.2-3.5c0.1,0,0.6,0,0.6,0.1
					C401,93.6,400.6,95.5,400.3,96.5z"/>
				<path class="st0" d="M378.5,97.5c-0.2,0-0.3-0.2-0.3-0.4l0,0c0-0.2,0-0.4,0.3-0.5l0,0c4.7-0.5,4.6-0.1,4.7-6.8l0,0v-13
					c-0.1-6.8,0.1-6.3-4.7-6.9l0,0c-0.3-0.1-0.2-0.3-0.3-0.5l0,0c0-0.1,0.1-0.4,0.3-0.4l0,0c0,0,0.1,0,0,0l0,0
					c3.3,0.2,7.8,0.3,12.4,0.3l0,0c3.4,0,6.5-0.1,8.9-0.3l0,0h0.3l-0.1,0.2c-0.2,0.6-0.3,1.4-0.3,2.3l0,0c0,0.4,0,1.3,0.1,1.6l0,0
					c-0.1,0.3-0.3,0.2-0.4,0.3l0,0c-0.1,0-0.2,0-0.3,0l0,0c-0.1-0.1-0.2,0-0.2-0.2l0,0c-0.4-1.8-1.1-2.4-7.2-2.5l0,0h-4.4
					c-0.2,1.1-0.2,3.1-0.2,5.8l0,0V82h4.7c5.2-0.1,4.6-0.3,4.9-1.5l0,0c0.2-0.1,0.3-0.1,0.5-0.1l0,0c0.1,0,0.1,0,0.2,0l0,0
					c0,0,0.1,0,0.2,0.2l0,0c0,0,0,0,0,0.1l0,0c-0.2,0.6-0.3,1.7-0.3,2.7l0,0c0,0.5,0,1.4,0.1,1.7l0,0v0.1l0,0
					c-0.1,0.2-0.3,0.2-0.4,0.2l0,0c-0.1,0-0.2,0-0.2,0l0,0c-0.1,0-0.2,0-0.2-0.2l0,0c-0.3-1.3-0.3-1.8-4.7-1.8l0,0h-4.7v6.3
					c0,5.8,0.7,6.1,2.8,6.1l0,0h2.4c7.2,0,7.4-0.6,8.1-3.5l0,0c0.1-0.1,0.2-0.1,0.2-0.1l0,0h0.1l0,0c0.2,0,0.4-0.1,0.5,0.3l0,0
					c-0.2,1.1-0.6,3.1-0.9,4l0,0h-0.2l0.2,0.1c-0.2,0.7-0.6,0.9-1.3,0.9l0,0c-1.7,0-4.6-0.2-8-0.2l0,0
					C386.6,97.2,381.9,97.3,378.5,97.5L378.5,97.5C378.6,97.5,378.6,97.5,378.5,97.5L378.5,97.5L378.5,97.5L378.5,97.5z M378.5,97.1
					L378.5,97.1L378.5,97.1L378.5,97.1L378.5,97.1z M383.5,76.8v13c0.1,6.7-0.3,6.8-4.9,7.2l0,0l0,0c0,0,0,0.1,0,0.2l0,0l0,0l0,0
					c3.3-0.2,8-0.3,12.6-0.3l0,0c3.4,0,6.3,0.2,8,0.2l0,0c0.7,0,0.7,0,1-0.7l0,0l0,0c0.3-0.9,0.7-2.8,0.9-3.9l0,0
					c-0.1,0-0.1,0-0.2,0l0,0l0,0l0,0c-0.6,2.9-1.3,3.6-8.4,3.6l0,0H390c-1.1,0-1.9-0.1-2.5-1.1l0,0c-0.5-0.9-0.7-2.5-0.7-5.4l0,0V83
					h5c4.2,0,4.8,0.7,5,2l0,0c0,0,0.1,0,0.2,0l0,0l0,0l0,0c0-0.4-0.1-1.2-0.1-1.6l0,0c0-0.9,0.1-2,0.3-2.6l0,0c-0.1,0-0.2,0-0.2,0
					l0,0c-0.2,1.1-0.2,1.7-5.2,1.6l0,0h-5v-5.9c0-2.8,0.1-4.8,0.3-6l0,0v-0.1h4.6c6,0,7.1,0.7,7.6,2.7l0,0c0,0,0.1,0,0.2,0l0,0l0,0
					l0,0c0-0.4-0.1-1.2-0.1-1.6l0,0c0-0.8,0.1-1.6,0.2-2.2l0,0c-2.5,0.2-5.5,0.3-8.7,0.3l0,0c-4.6,0-9.1-0.1-12.5-0.3l0,0l0,0l0,0
					l0,0v0.1l0,0C383.3,70.1,383.6,70.2,383.5,76.8L383.5,76.8z M400.7,92.5L400.7,92.5L400.7,92.5L400.7,92.5z"/>
			</g>
			<g>
				<path class="st0" d="M444.2,98c-10.6,0-15.9-6.8-17.9-13.6c-1.1,0.2-2.7,0.3-3.7,0.3s-1.2,0-2-0.1v5.2c0,6.4,0,6.7,4.4,7
					c0.1,0,0.2,0.6,0,0.5c-1.4-0.2-3.7-0.3-5.7-0.3c-2.7,0-4.8,0.1-6.7,0.3c-0.2,0.1-0.1-0.5,0-0.5c4.2-0.4,4.4-0.3,4.4-7v-13
					c0-5-0.1-6.5-2.8-6.5c-0.5,0-1.1,0.1-1.7,0.2c-0.1,0-0.3-0.4,0-0.5c1.9-0.6,6.4-0.7,11.4-0.7c6.6,0,11.9,1.9,11.9,6.6
					c0,2.4-1.6,5.9-6.4,7.7c2.4,6.3,9.7,13.9,14.9,13.9C444.3,97.5,444.5,98,444.2,98z M423.2,70.1c-0.8,0-1.3,0.1-2.1,0.1
					c-0.3,0.9-0.4,2.9-0.4,6.2v7.3c0.7,0,1.1,0,1.9,0c6.9,0,9.4-2.4,9.4-6.1C431.9,71.7,427.8,70.1,423.2,70.1z"/>
				<path class="st0" d="M426.2,84.5c-1.1,0.2-2.6,0.3-3.5,0.3l0,0c-0.9,0-1.2,0-1.8-0.1l0,0v5c0.1,6.4-0.1,6.5,4.3,6.8l0,0
					c0.2,0.1,0.2,0.3,0.2,0.5l0,0c0,0.1-0.1,0.4-0.3,0.4l0,0l0,0l0,0c-1.4-0.2-3.7-0.3-5.7-0.3l0,0c-2.7,0-4.8,0.1-6.7,0.3l0,0h-0.1
					l0,0c-0.3,0-0.3-0.3-0.3-0.4l0,0c0-0.2,0-0.3,0.3-0.5l0,0c4.2-0.5,4.2-0.1,4.3-6.8l0,0v-13c0-5.1-0.1-6.4-2.6-6.4l0,0
					c-0.5,0-1.1,0.1-1.7,0.2l0,0c-0.3,0-0.3-0.3-0.3-0.5l0,0c0-0.1,0.1-0.3,0.3-0.4l0,0c1.9-0.6,6.4-0.7,11.4-0.7l0,0
					c6.6,0,12.1,1.9,12.1,6.7l0,0c0,2.5-1.6,6-6.3,7.8l0,0c2.5,6.2,9.7,13.7,14.7,13.6l0,0c0.3,0.1,0.2,0.3,0.3,0.5l0,0
					c0,0.1-0.1,0.4-0.3,0.4l0,0V98v-0.2V98v0.2C433.6,98.1,428.2,91.4,426.2,84.5L426.2,84.5z M426.4,84.3c2,6.8,7.2,13.5,17.8,13.5
					l0,0l0,0l0,0v-0.1l0,0c-5.3-0.1-12.5-7.7-15-14l0,0l-0.1-0.2l0.2-0.1c4.7-1.8,6.3-5.2,6.3-7.6l0,0c0-4.5-5.2-6.4-11.7-6.4l0,0
					c-5,0-9.5,0.1-11.3,0.7l0,0c0,0,0,0,0,0.1l0,0v0.1l0,0l0,0c0.6-0.1,1.2-0.2,1.7-0.2l0,0c2.8,0,3,1.7,3,6.7l0,0v13
					c0.1,6.6-0.3,6.8-4.5,7.2l0,0l0,0v0.1l0,0l0,0l0,0c1.9-0.2,4-0.3,6.7-0.3l0,0c2,0,4.3,0.1,5.7,0.3l0,0l0,0l0,0l0,0l0,0
					c0,0,0-0.1,0-0.2l0,0l0,0l0,0c-4.3-0.2-4.6-0.9-4.5-7.2l0,0v-5.4h0.2c0.7,0.1,0.9,0.1,1.9,0.1l0,0c1,0,2.5-0.1,3.6-0.3l0,0h0.2
					L426.4,84.3L426.4,84.3z M420.6,83.9h-0.2v-7.5c0-3.3,0.1-5.3,0.4-6.2l0,0v-0.1h0.1c0.8,0,1.4-0.1,2.1-0.1l0,0v0.2v0.2
					c-0.7,0-1.2,0-2,0.1l0,0c-0.2,0.9-0.4,2.9-0.4,6l0,0v7.2c0.6,0,1,0,1.8,0l0,0c6.9,0,9.2-2.3,9.2-5.9l0,0c0-5.9-4-7.3-8.6-7.3
					l0,0v-0.2V70c4.6,0,8.9,1.6,8.9,7.7l0,0c0,3.8-2.6,6.3-9.6,6.3l0,0C421.7,83.9,421.4,83.9,420.6,83.9L420.6,83.9z"/>
			</g>
			<g>
				<path class="st0" d="M468.7,76.8l-5,6.6v6.4c0,6.3,0,6.7,4.4,7c0.1,0,0.2,0.6,0,0.5c-1.4-0.2-3.7-0.3-5.7-0.3
					c-2.7,0-4.8,0.1-6.7,0.3c-0.2,0.1-0.1-0.5-0.1-0.5c4.2-0.4,4.4-0.3,4.4-7v-6l-4.1-6c-4.5-6.6-5.7-7.6-9.6-8
					c-0.1,0-0.2-0.5,0-0.5c1.9,0.2,4,0.3,6.7,0.3c1.9,0,4.2-0.1,5.6-0.3c0.3,0,0.1,0.5,0.1,0.5c-4.1,0.3-3.3,1.6,1.2,8l3.2,4.5
					l4.1-5.5c4.6-6.1,4.8-6.6,0.9-7c-0.1,0-0.2-0.5,0-0.5c1.9,0.2,2.9,0.3,5.6,0.3c1.9,0,2.8-0.1,4.2-0.3c0.2,0,0.1,0.5,0,0.5
					C473.9,70.1,473,71,468.7,76.8z"/>
				<path class="st0" d="M455.3,97.1c0-0.2,0-0.3,0.3-0.5l0,0c4.2-0.5,4.2-0.1,4.3-6.8l0,0v-5.9l-4.1-6c-4.5-6.6-5.6-7.5-9.4-7.9
					l0,0c-0.3-0.1-0.3-0.3-0.3-0.5l0,0c0-0.1,0.1-0.3,0.3-0.4l0,0l0,0l0,0c1.9,0.2,4,0.3,6.7,0.3l0,0c1.9,0,4.2-0.1,5.6-0.3l0,0
					c0,0,0,0,0.1,0l0,0c0.2,0,0.3,0.2,0.3,0.3l0,0c0,0.2,0,0.4-0.3,0.5l0,0c-1.8,0.2-2.5,0.5-2.5,1.2l0,0c0,1,1.3,3,3.8,6.5l0,0
					l3,4.3l4-5.3c2.5-3.2,3.7-4.9,3.6-5.7l0,0c0-0.6-0.8-0.8-2.6-1l0,0c-0.3-0.1-0.3-0.3-0.3-0.5l0,0c0-0.1,0.1-0.3,0.3-0.4l0,0l0,0
					l0,0c1.9,0.2,2.9,0.3,5.6,0.3l0,0c1.9,0,2.7-0.1,4.2-0.3l0,0c0,0,0,0,0.1,0l0,0c0.2,0,0.3,0.2,0.3,0.3l0,0c0,0.2,0,0.4-0.3,0.5
					l0,0c-3.9,0.3-4.7,1.1-9.1,6.9l0,0l-5,6.5v6.4c0.1,6.4-0.1,6.5,4.3,6.9l0,0c0.2,0.1,0.2,0.3,0.2,0.5l0,0c0,0.1-0.1,0.4-0.3,0.4
					l0,0l0,0l0,0c-1.4-0.2-3.7-0.3-5.7-0.3l0,0c-2.7,0-4.8,0.1-6.7,0.3l0,0h-0.1l0,0C455.3,97.5,455.3,97.2,455.3,97.1L455.3,97.1z
					 M468,97.1C468,97.1,468,97.2,468,97.1L468,97.1L468,97.1L468,97.1c0,0,0-0.1,0-0.2l0,0l0,0l0,0c-4.3-0.2-4.6-0.9-4.5-7.2l0,0
					v-6.5l5-6.6c4.3-5.8,5.3-6.8,9.3-7.1l0,0l0,0v-0.1l0,0c-1.4,0.2-2.3,0.3-4.2,0.3l0,0c-2.6,0-3.6-0.1-5.6-0.3l0,0l0,0l0,0
					c0,0.1,0,0.1,0,0.1l0,0c1.7,0.2,2.8,0.4,2.8,1.4l0,0c0,1-1.2,2.6-3.7,5.9l0,0l-4.2,5.7l-3.3-4.7c-2.5-3.5-3.9-5.5-3.9-6.7l0,0
					c0-1,1-1.4,2.8-1.5l0,0v-0.1l0,0l0,0l0,0c-1.4,0.2-3.7,0.3-5.6,0.3l0,0c-2.6,0-4.7-0.1-6.7-0.3l0,0l0,0l0,0c0,0.1,0,0.1,0,0.1
					l0,0c3.9,0.4,5.2,1.5,9.7,8.1l0,0l4.1,6v6c0.1,6.6-0.3,6.8-4.5,7.2l0,0l0,0V97l0,0l0,0l0,0c1.9-0.2,4-0.3,6.7-0.3l0,0
					C464.3,96.8,466.6,97,468,97.1L468,97.1z M458.7,69.5L458.7,69.5L458.7,69.5L458.7,69.5L458.7,69.5L458.7,69.5z"/>
			</g>
			<g>
				<path class="st0" d="M531.3,76.8v13c0,2.2,0.1,6.1,0.4,7.9c0,0.1-0.4,0.2-0.6,0l-22.8-22.6v14.7c0,5.9,0,6.7,4.4,7
					c0.1,0,0.2,0.6,0,0.5c-1.4-0.2-2.7-0.3-4.6-0.3c-2.7,0-3.8,0.1-5.7,0.3c-0.3,0.1-0.1-0.5,0-0.5c4.2-0.4,4.4-0.9,4.4-7V74.6
					c0-2-3-4.6-5.3-4.8c-0.1,0-0.2-0.5,0-0.5c1.9,0.2,3.7,0.3,6.3,0.3l21.9,21.8V76.8c0-6.1-0.2-6.6-4.4-7c-0.1,0-0.2-0.5,0-0.5
					c1.9,0.2,3,0.3,5.7,0.3c1.9,0,3.2-0.1,4.6-0.3c0.3,0,0.2,0.5,0,0.5C531.4,70.1,531.3,71,531.3,76.8z"/>
				<path class="st0" d="M531,97.8l-22.5-22.3v14.3c0.1,5.9-0.1,6.5,4.3,6.9l0,0c0.2,0.1,0.2,0.3,0.2,0.5l0,0c0,0.1-0.1,0.4-0.3,0.4
					l0,0l0,0l0,0c-1.4-0.2-2.7-0.3-4.6-0.3l0,0c-2.7,0-3.7,0.1-5.7,0.3l0,0h-0.1l0,0c-0.2,0-0.3-0.2-0.3-0.4l0,0
					c0-0.2,0-0.4,0.3-0.5l0,0c4.1-0.4,4.2-0.7,4.3-6.8l0,0V74.6c0-1.8-3-4.4-5.1-4.7l0,0c-0.3-0.1-0.2-0.3-0.3-0.4l0,0
					c0-0.1,0-0.3,0.3-0.4l0,0h0.1l0,0c1.9,0.2,3.6,0.3,6.3,0.3l0,0h0.1L529.6,91V76.8c-0.1-6.2-0.1-6.4-4.2-6.9l0,0
					c-0.3-0.1-0.2-0.3-0.3-0.4l0,0c0-0.1,0-0.3,0.3-0.4l0,0h0.1l0,0c1.9,0.2,3,0.3,5.6,0.3l0,0c1.9,0,3.2-0.1,4.6-0.3l0,0
					c0,0,0,0,0.1,0l0,0c0.2,0,0.3,0.3,0.3,0.4l0,0c0,0.2,0,0.4-0.3,0.4l0,0c-4.3,0.4-4.2,1-4.2,6.9l0,0v13c0,2.2,0.1,6.1,0.4,7.9
					l0,0c0,0.3-0.2,0.3-0.4,0.3l0,0C531.3,98,531.1,97.9,531,97.8L531,97.8z M531.3,97.6c0.1,0.1,0.1,0.1,0.2,0.1l0,0l0,0l0,0
					c-0.2-1.9-0.4-5.7-0.4-7.8l0,0v-13c-0.1-5.8,0.2-6.9,4.5-7.2l0,0v-0.1l0,0l0,0l0,0c-1.4,0.2-2.7,0.3-4.6,0.3l0,0
					c-2.6,0-3.7-0.1-5.6-0.3l0,0l0,0l0,0v0.1l0,0c4.2,0.4,4.6,1.2,4.5,7.2l0,0v15l-22.1-22c-2.6,0-4.3-0.1-6.2-0.3l0,0l0,0l0,0v0.1
					l0,0c2.3,0.3,5.3,2.9,5.3,5l0,0v15.1c0.1,6.1-0.4,6.8-4.5,7.2l0,0l0,0c0,0,0,0.1,0,0.2l0,0l0,0l0,0l0,0l0,0
					c1.9-0.2,3-0.3,5.7-0.3l0,0c1.9,0,3.2,0.1,4.6,0.3l0,0l0,0l0,0l0,0l0,0c0,0,0-0.1,0-0.2l0,0l0,0l0,0c-4.4-0.3-4.6-1.4-4.5-7.2
					l0,0V74.7L531.3,97.6L531.3,97.6z M535.7,69.5L535.7,69.5L535.7,69.5L535.7,69.5L535.7,69.5L535.7,69.5z"/>
			</g>
			<g>
				<path class="st0" d="M567.3,96.5c-0.2,0.7-0.4,0.8-1.1,0.8c-1.7,0-4.6-0.2-8-0.2c-4.6,0-9.3,0.1-12.6,0.3
					c-0.3,0.1-0.1-0.5,0-0.5c4.7-0.5,4.8-0.3,4.8-7v-13c0-6.7-0.1-6.5-4.8-7c-0.1,0-0.2-0.5,0-0.5c3.3,0.2,7.8,0.3,12.4,0.3
					c3.4,0,6.5-0.1,9-0.3c-0.2,0.6-0.3,1.4-0.3,2.3c0,0.4,0,1.3,0.1,1.6c0,0.1-0.6,0.1-0.6,0c-0.4-1.9-1.3-2.6-7.4-2.6h-4.5
					c-0.2,1.1-0.3,3.1-0.3,5.9v5.7h4.9c5.2,0,4.8-0.4,5.1-1.6c0,0,0.6-0.1,0.6,0c-0.2,0.6-0.3,1.7-0.3,2.7c0,0.5,0.1,1.4,0.1,1.7
					c0.1,0.1-0.5,0.1-0.5,0c-0.3-1.4-0.5-2-4.9-2h-5v6.4c0,5.8,0.8,6.3,3,6.3h2.4c7.1,0,7.5-0.6,8.2-3.5c0,0,0.6,0,0.6,0.1
					C568,93.6,567.6,95.5,567.3,96.5z"/>
				<path class="st0" d="M545.2,97.1c0-0.2,0-0.4,0.3-0.5l0,0c4.7-0.5,4.6-0.1,4.7-6.8l0,0v-13c-0.1-6.8,0.1-6.3-4.7-6.9l0,0
					c-0.3-0.1-0.2-0.3-0.3-0.5l0,0c0-0.1,0.1-0.4,0.3-0.4l0,0l0,0l0,0c3.3,0.2,7.8,0.3,12.4,0.3l0,0c3.4,0,6.5-0.1,8.9-0.3l0,0h0.3
					l-0.1,0.2c-0.2,0.6-0.3,1.4-0.3,2.3l0,0c0,0.4,0,1.3,0.1,1.6l0,0c-0.1,0.3-0.3,0.2-0.4,0.3l0,0c-0.1,0-0.2,0-0.2,0l0,0
					c-0.1-0.1-0.2,0-0.2-0.2l0,0c-0.4-1.8-1.1-2.4-7.2-2.5l0,0h-4.4c-0.2,1.1-0.3,3.1-0.3,5.8l0,0V82h4.7c5.2-0.1,4.6-0.3,4.9-1.5
					l0,0c0.2-0.1,0.3-0.1,0.5-0.1l0,0c0.1,0,0.1,0,0.2,0l0,0c0,0,0.1,0,0.2,0.2l0,0l0,0l0,0l0,0h-0.1l0.1,0.1
					c-0.2,0.6-0.3,1.7-0.3,2.7l0,0c0,0.5,0,1.4,0.1,1.7l0,0v0.1l0,0c-0.1,0.2-0.3,0.2-0.4,0.2l0,0c-0.1,0-0.2,0-0.2,0l0,0
					c-0.1,0-0.2,0-0.2-0.2l0,0c-0.3-1.3-0.3-1.8-4.7-1.8l0,0h-4.7v6.2c0.1,5.8,0.8,6.1,2.8,6.1l0,0h2.4c7.2,0,7.4-0.6,8.1-3.5l0,0
					c0.1-0.1,0.2-0.1,0.2-0.1l0,0h0.1l0,0c0.2,0,0.4-0.1,0.5,0.3l0,0c-0.2,1.1-0.6,3.1-0.9,4l0,0h-0.2l0.2,0.1
					c-0.2,0.7-0.6,0.9-1.3,0.9l0,0c-1.7,0-4.6-0.2-8-0.2l0,0c-4.6,0-9.3,0.1-12.6,0.3l0,0h-0.1l0,0
					C545.3,97.5,545.2,97.3,545.2,97.1L545.2,97.1z M545.5,97.2L545.5,97.2L545.5,97.2C545.5,97.1,545.5,97.1,545.5,97.2L545.5,97.2
					z M550.5,76.8v13c0.1,6.7-0.2,6.8-4.9,7.2l0,0l0,0c0,0,0,0.1,0,0.2l0,0l0,0l0,0c3.3-0.2,8-0.3,12.6-0.3l0,0c3.4,0,6.3,0.2,8,0.2
					l0,0c0.7,0,0.7,0,1-0.7l0,0l0,0c0.3-0.9,0.7-2.8,0.9-3.8l0,0c-0.1,0-0.1,0-0.2,0l0,0c0,0,0,0-0.1,0l0,0
					c-0.6,2.9-1.3,3.6-8.3,3.6l0,0H557c-1.1,0-1.9-0.1-2.5-1.1l0,0c-0.5-0.9-0.7-2.5-0.7-5.4l0,0V83h5.1c4.2-0.1,4.8,0.7,5,2l0,0
					c0,0,0.1,0,0.2,0l0,0l0,0l0,0c-0.1-0.4-0.1-1.2-0.1-1.6l0,0c0-1,0.1-2,0.3-2.6l0,0l0,0l0,0c-0.1,0-0.2,0-0.2,0l0,0
					c-0.2,1.1-0.3,1.7-5.2,1.6l0,0h-5.1v-5.9c0-2.8,0.1-4.8,0.3-6l0,0v-0.1h4.7c6,0,7.1,0.7,7.6,2.7l0,0c0,0,0.1,0,0.2,0l0,0l0,0
					l0,0c0-0.4-0.1-1.2-0.1-1.6l0,0c0-0.8,0.1-1.6,0.2-2.2l0,0c-2.5,0.2-5.5,0.3-8.7,0.3l0,0c-4.6,0-9.1-0.1-12.4-0.3l0,0l0,0l0,0
					c0,0.1,0,0.1,0,0.1l0,0C550.3,70.1,550.6,70.2,550.5,76.8L550.5,76.8z M567.7,92.5L567.7,92.5L567.7,92.5L567.7,92.5z"/>
			</g>
			<g>
				<path class="st0" d="M607.5,71.7c0,0.7,0,1.7,0.2,2.3c0,0.1-0.6,0-0.6,0c-0.4-2-1.1-3-7.2-3h-5v18.8c0,6.4,0,6.7,4.4,7
					c0.1,0,0.2,0.6,0,0.5c-1.4-0.2-3.7-0.3-5.6-0.3c-2.7,0-4.8,0.1-6.8,0.3c-0.2,0.1-0.1-0.5,0-0.5c4.2-0.4,4.4-0.3,4.4-7V71h-5.2
					c-5.9,0-6.9,1-7.4,3c0,0-0.6,0.1-0.5,0c0.2-0.9,0.2-2.4,0.2-3.6c0-0.8-0.1-1.6-0.2-2.2c0-0.1,0.6,0,0.6,0
					c0.3,1.5,0.6,1.6,7.4,1.6H600c6.8,0,7.2-0.1,7.6-1.6c0,0,0.6-0.1,0.5,0C607.7,69.2,607.5,70.3,607.5,71.7z"/>
				<path class="st0" d="M586.6,97.1c0-0.2,0-0.4,0.3-0.5l0,0c4.2-0.5,4.1-0.1,4.2-6.8l0,0V71.2h-5c-5.9,0-6.7,1-7.2,2.9l0,0
					c-0.1,0.2-0.1,0.1-0.2,0.2l0,0h-0.1l0,0c-0.1,0-0.2,0-0.3,0l0,0c0,0-0.1,0-0.2,0l0,0c0,0-0.1,0-0.2-0.2l0,0l0,0l0,0l0,0l0,0
					c0.2-0.9,0.2-2.3,0.2-3.6l0,0c0-0.8-0.1-1.6-0.2-2.2l0,0c0.1-0.3,0.3-0.2,0.4-0.2l0,0c0.1,0,0.3,0,0.4,0.1l0,0
					c0,0.1,0.1,0,0.1,0.1l0,0c0.3,1.4,0.3,1.5,7.2,1.5l0,0h13.8c6.8,0,7-0.1,7.4-1.5l0,0c0.1-0.2,0.1-0.1,0.1-0.2l0,0h0.1l0,0
					c0.1,0,0.2,0,0.3,0l0,0c0.1,0,0.2,0,0.3,0.2l0,0c0,0,0,0,0,0.1l0,0c-0.2,1-0.4,2.1-0.4,3.5l0,0c0,0.7,0,1.7,0.1,2.3l0,0
					c-0.1,0.2-0.2,0.2-0.2,0.2l0,0c-0.1,0-0.1,0-0.2,0l0,0c-0.1,0-0.3,0-0.4,0l0,0l0,0l0,0c0,0-0.1,0-0.1-0.1l0,0
					c-0.4-1.9-1-2.8-7.1-2.9l0,0h-4.8V90c0.1,6.5-0.1,6.5,4.3,6.8l0,0c0.2,0.1,0.2,0.3,0.2,0.5l0,0c0,0.1-0.1,0.4-0.3,0.4l0,0l0,0
					l0,0c-1.4-0.2-3.7-0.3-5.6-0.3l0,0c-2.7,0-4.8,0.1-6.7,0.3l0,0l0,0l0,0C586.6,97.5,586.6,97.2,586.6,97.1L586.6,97.1z
					 M599.3,97.1L599.3,97.1L599.3,97.1L599.3,97.1L599.3,97.1c0-0.1,0-0.1,0-0.2l0,0l0,0l0,0c-4.4-0.2-4.6-0.8-4.6-7.2l0,0v-19h5.1
					c5.9,0,7,1.1,7.4,3.1l0,0c0.1,0,0.1,0,0.2,0l0,0l0,0l0,0c-0.1-0.6-0.1-1.5-0.1-2.2l0,0c0-1.4,0.2-2.5,0.4-3.5l0,0
					c0,0-0.1,0-0.2,0l0,0c-0.4,1.5-1.1,1.7-7.7,1.7l0,0H586c-6.6,0-7.2-0.2-7.5-1.7l0,0l0,0l0,0c-0.1,0-0.1,0-0.2,0l0,0
					c0.1,0.6,0.2,1.4,0.2,2.1l0,0c0,1.2,0,2.6-0.2,3.5l0,0c0.1,0,0.1,0,0.2,0l0,0c0.5-2,1.7-3.1,7.5-3.1l0,0h5.3v19
					c0.1,6.6-0.3,6.9-4.5,7.2l0,0l0,0v0.1l0,0l0,0l0,0c2-0.2,4.1-0.3,6.7-0.3l0,0C595.6,96.8,597.9,97,599.3,97.1L599.3,97.1
					L599.3,97.1L599.3,97.1L599.3,97.1L599.3,97.1z"/>
			</g>
			<g>
				<path class="st0" d="M656.2,76.8L647,97.7c0,0.1-0.4,0.2-0.5,0l-7-18.7l-8.7,18.7c0,0.1-0.4,0.2-0.5,0l-8.8-20.8
					c-2.2-5.2-3-6.7-6.7-7c-0.1,0-0.2-0.5,0-0.5c1.3,0.2,3.1,0.3,4.9,0.3c2.5,0,5.6-0.1,7.4-0.3c0.2,0,0.1,0.5,0,0.5
					c-2.2,0.2-3.4,0.5-3.4,1.7c0,0.9,1.1,3.8,1.7,5.3l6.6,15.7l6.9-15.1l-0.2-0.6c-2-5.3-2.8-6.7-6.3-7c-0.1,0-0.2-0.5,0-0.5
					c1.3,0.2,3.1,0.3,4.9,0.3c2.5,0,6-0.1,7.7-0.3c0.2,0,0.1,0.5,0,0.5c-3,0.2-3.9,0.6-3.9,1.9c0,1,0.5,2.6,1.4,5.1l5.6,15.7
					l6.7-15.9c1.1-2.6,1.6-3.9,1.6-5.1c0-1.1-0.7-1.5-3.1-1.8c-0.1,0-0.2-0.5,0-0.5c1.3,0.2,2.7,0.3,4.5,0.3c2.5,0,2.5-0.1,4.3-0.3
					c0.2,0,0.1,0.5,0,0.5C659.3,70.1,658.4,71.9,656.2,76.8z"/>
				<path class="st0" d="M646.3,97.7l-6.8-18.3L631,97.8c-0.1,0.2-0.3,0.2-0.4,0.2l0,0c-0.2,0-0.4-0.1-0.4-0.3l0,0l-8.8-20.8
					c-2.2-5.2-2.9-6.6-6.5-6.9l0,0c-0.3-0.1-0.2-0.3-0.3-0.4l0,0c0-0.1,0-0.3,0.3-0.4l0,0h0.1l0,0c1.3,0.2,3.1,0.3,4.9,0.3l0,0
					c2.5,0,5.6-0.1,7.3-0.3l0,0c0,0,0,0,0.1,0l0,0c0.2,0,0.3,0.2,0.3,0.3l0,0c-0.1,0.2,0,0.4-0.3,0.5l0,0c-2.3,0.2-3.3,0.5-3.3,1.6
					l0,0c0,0.8,1.1,3.8,1.7,5.2l0,0l6.5,15.3l6.7-14.7l-0.2-0.5c-2-5.3-2.7-6.6-6.2-6.9l0,0c-0.3-0.1-0.2-0.3-0.3-0.4l0,0
					c0-0.1,0-0.3,0.3-0.4l0,0h0.1l0,0c1.3,0.2,3.1,0.3,4.8,0.3l0,0c2.5,0,5.9-0.1,7.7-0.3l0,0c0,0,0,0,0.1,0l0,0
					c0.3,0,0.3,0.3,0.3,0.4l0,0c-0.1,0.2,0.1,0.3-0.2,0.5l0,0c-3,0.2-3.7,0.6-3.7,1.8l0,0c0,0.9,0.5,2.5,1.4,5l0,0l5.5,15.3
					l6.5-15.5c1.1-2.5,1.6-3.9,1.6-5l0,0c0-1-0.6-1.4-2.9-1.6l0,0c-0.3-0.1-0.2-0.3-0.3-0.5l0,0c0-0.1,0.1-0.3,0.3-0.3l0,0h0.1l0,0
					c1.3,0.2,2.7,0.3,4.5,0.3l0,0c2.5,0,2.5-0.1,4.3-0.3l0,0c0,0,0,0,0.1,0l0,0c0.2,0,0.3,0.2,0.3,0.3l0,0c-0.1,0.2,0,0.4-0.3,0.5
					l0,0c-2.8,0.3-3.7,2-5.9,6.9l0,0l-9.2,20.9c-0.1,0.2-0.3,0.2-0.4,0.2l0,0C646.6,98,646.4,97.9,646.3,97.7L646.3,97.7z
					 M630.7,97.6L630.7,97.6l8.8-19.1l7.1,19c0,0,0,0,0.1,0l0,0h0.1l0,0l0,0l9.2-20.9c2.1-4.9,3.2-6.8,6.1-7.1l0,0l0,0l0,0v-0.1l0,0
					c-1.8,0.2-1.8,0.3-4.3,0.3l0,0c-1.8,0-3.2-0.1-4.5-0.3l0,0l0,0l0,0c0,0.1,0,0.1,0,0.1l0,0c2.3,0.2,3.2,0.7,3.2,1.9l0,0
					c0,1.2-0.6,2.6-1.7,5.1l0,0L648.2,93l-5.8-16.1c-0.9-2.6-1.4-4.1-1.4-5.2l0,0c0-1.5,1.1-1.9,4-2.1l0,0v-0.1l0,0l0,0l0,0
					c-1.8,0.2-5.2,0.3-7.7,0.3l0,0c-1.8,0-3.5-0.1-4.9-0.3l0,0l0,0l0,0v0.1l0,0c3.6,0.3,4.5,1.9,6.4,7.1l0,0l0.3,0.6L632,92.9
					l-6.8-16c-0.6-1.5-1.7-4.4-1.7-5.4l0,0c0-1.4,1.3-1.7,3.5-1.9l0,0l0,0l0,0v-0.1l0,0c-1.8,0.2-4.9,0.3-7.3,0.3l0,0
					c-1.8,0-3.5-0.1-4.9-0.3l0,0l0,0l0,0v0.1l0,0c3.7,0.3,4.6,2,6.7,7.1l0,0l8.8,20.8C630.5,97.6,630.5,97.6,630.7,97.6L630.7,97.6
					C630.6,97.6,630.6,97.6,630.7,97.6L630.7,97.6L630.7,97.6L630.7,97.6z M662.3,69.5L662.3,69.5L662.3,69.5L662.3,69.5L662.3,69.5
					z M627.2,69.5L627.2,69.5L627.2,69.5L627.2,69.5L627.2,69.5z M645,69.4L645,69.4L645,69.4L645,69.4z"/>
			</g>
			<g>
				<path class="st0" d="M684.9,97.9c-9.6,0-16.1-6.7-16.1-14.1c0-7.1,7-15,17-15c9.6,0,16.2,6.7,16.2,14.1
					C701.9,90,694.8,97.9,684.9,97.9z M684.7,69.8c-7,0-12.1,4.7-12.1,12.6c0,9.6,6.8,14.6,13.4,14.6c7,0,12.1-4.7,12.1-12.6
					C698.1,74.7,691.2,69.8,684.7,69.8z"/>
				<path class="st0" d="M668.5,83.8c0-7.2,7.1-15.2,17.1-15.2l0,0c9.7,0,16.4,6.8,16.4,14.2l0,0c0,7.2-7.1,15.2-17.2,15.2l0,0v-0.2
					v-0.2c9.9,0,16.8-7.8,16.9-14.9l0,0c0-7.2-6.5-13.9-16-13.9l0,0c-9.8,0-16.8,7.8-16.8,14.8l0,0c0,7.3,6.5,13.9,16,13.9l0,0v0.2
					v0.2C675.2,98,668.5,91.2,668.5,83.8L668.5,83.8z M672.3,82.3c0-8,5.3-12.7,12.3-12.7l0,0v0.2V70c-6.9,0-12,4.6-12,12.4l0,0
					c0,9.5,6.7,14.4,13.3,14.4l0,0c6.9,0,12-4.6,12-12.4l0,0c0-9.5-6.8-14.4-13.3-14.4l0,0v-0.2v-0.2c6.7,0,13.6,5,13.6,14.7l0,0
					c0,8-5.3,12.7-12.3,12.7l0,0C679.2,97,672.4,92,672.3,82.3L672.3,82.3z"/>
			</g>
			<g>
				<path class="st0" d="M743.7,98c-10.6,0-15.9-6.8-17.9-13.6c-1.1,0.2-2.7,0.3-3.7,0.3s-1.2,0-2-0.1v5.2c0,6.4,0,6.7,4.4,7
					c0.1,0,0.2,0.6,0,0.5c-1.4-0.2-3.7-0.3-5.7-0.3c-2.7,0-4.8,0.1-6.7,0.3c-0.2,0.1-0.1-0.5,0-0.5c4.2-0.4,4.4-0.3,4.4-7v-13
					c0-5-0.1-6.5-2.8-6.5c-0.5,0-1.1,0.1-1.7,0.2c-0.1,0-0.3-0.4,0-0.5c1.9-0.6,6.4-0.7,11.4-0.7c6.6,0,11.9,1.9,11.9,6.6
					c0,2.4-1.6,5.9-6.4,7.7c2.5,6.3,9.7,13.9,14.9,13.9C743.8,97.5,743.9,98,743.7,98z M722.7,70.1c-0.7,0-1.3,0.1-2.1,0.1
					c-0.3,0.9-0.4,2.9-0.4,6.2v7.3c0.7,0,1.1,0,1.9,0c6.9,0,9.4-2.4,9.4-6.1C731.4,71.7,727.2,70.1,722.7,70.1z"/>
				<path class="st0" d="M725.6,84.5c-1.1,0.2-2.6,0.3-3.5,0.3l0,0c-0.9,0-1.2,0-1.8-0.1l0,0v5c0.1,6.4-0.1,6.5,4.3,6.9l0,0
					c0.2,0.1,0.2,0.3,0.2,0.5l0,0c0,0.1-0.1,0.4-0.3,0.4l0,0l0,0l0,0c-1.4-0.2-3.7-0.3-5.7-0.3l0,0c-2.7,0-4.8,0.1-6.7,0.3l0,0l0,0
					l0,0c-0.3,0-0.3-0.3-0.3-0.4l0,0c0-0.2,0-0.3,0.3-0.5l0,0c4.2-0.5,4.2-0.1,4.3-6.8l0,0v-13c0-5.1-0.1-6.3-2.6-6.4l0,0
					c-0.5,0-1.1,0.1-1.7,0.2l0,0c-0.3,0-0.3-0.3-0.3-0.5l0,0c0-0.1,0-0.3,0.2-0.4l0,0c1.9-0.6,6.4-0.7,11.5-0.7l0,0
					c6.6,0,12.1,1.9,12.1,6.7l0,0c0,2.5-1.6,6-6.3,7.8l0,0c2.5,6.2,9.7,13.7,14.7,13.6l0,0c0.3,0.1,0.2,0.3,0.3,0.5l0,0
					c0,0.1-0.1,0.4-0.3,0.4l0,0l0,0v-0.2V98v0.2C733.1,98.1,727.7,91.4,725.6,84.5L725.6,84.5z M725.9,84.3
					c2,6.8,7.2,13.5,17.7,13.5l0,0l0,0l0,0c0-0.1,0-0.1,0-0.1l0,0c-5.3-0.1-12.5-7.7-15-14l0,0l-0.1-0.2l0.2-0.1
					c4.7-1.8,6.3-5.2,6.3-7.6l0,0c0-4.5-5.2-6.4-11.7-6.4l0,0c-5,0-9.5,0.1-11.3,0.7l0,0c0,0,0,0,0,0.1l0,0v0.1l0,0l0,0
					c0.6-0.1,1.2-0.2,1.7-0.2l0,0c2.8,0,3,1.7,3,6.7l0,0v13c0.1,6.6-0.3,6.9-4.5,7.2l0,0l0,0v0.1l0,0l0,0l0,0c1.9-0.2,4-0.3,6.7-0.3
					l0,0c2,0,4.3,0.1,5.7,0.3l0,0l0,0l0,0l0,0l0,0c0,0,0-0.1,0-0.2l0,0l0,0l0,0c-4.3-0.2-4.6-0.9-4.5-7.2l0,0v-5.4h0.2
					c0.7,0.1,0.9,0.1,2,0.1l0,0c1,0,2.5-0.1,3.6-0.3l0,0h0.1L725.9,84.3L725.9,84.3z M720.1,83.9h-0.2v-7.5c0-3.3,0.1-5.3,0.4-6.2
					l0,0v-0.1h0.1c0.8,0,1.4-0.1,2.1-0.1l0,0v0.2v0.2c-0.7,0-1.2,0-2,0.1l0,0c-0.2,0.9-0.4,2.9-0.4,6l0,0v7.1c0.6,0,1,0,1.8,0l0,0
					c6.9,0,9.2-2.3,9.2-5.9l0,0c0-5.9-4-7.3-8.6-7.3l0,0v-0.2V70c4.6,0,8.9,1.6,8.9,7.7l0,0c0,3.8-2.6,6.3-9.6,6.3l0,0
					C721.2,83.9,720.9,83.9,720.1,83.9L720.1,83.9z"/>
			</g>
			<g>
				<path class="st0" d="M760.7,97.3c-1.4-0.2-3.3-0.3-5.3-0.3c-2.7,0-5.2,0.1-7.1,0.3c-0.2,0.1-0.1-0.5,0-0.5
					c4.7-0.5,4.8-0.3,4.8-7v-13c0-6.7-0.1-6.5-4.8-7c-0.1,0-0.2-0.5,0-0.5c1.9,0.2,4.5,0.3,7.1,0.3c1.9,0,3.8-0.1,5.3-0.3
					c0.2,0,0.1,0.5,0,0.5c-3.8,0.3-4,0.7-4,7v13c0,6.3,0.2,6.7,4,7C760.9,96.8,761,97.4,760.7,97.3z M773.7,97c-2.6,0-5,0.1-7,0.3
					c-0.2,0.1-0.1-0.5,0-0.5c2.1-0.2,3-0.3,2.3-1.5c-0.9-1.3-3.1-3.3-5.5-5.5l-6.3-5.9l6.8-7c2.2-2.2,4.2-4.2,5-5.5
					c0.7-1.2-0.3-1.3-2.4-1.5c-0.1,0-0.2-0.5,0-0.5c1.5,0.2,3.2,0.2,5.2,0.2c1.5,0,2.9-0.1,3.9-0.2c0.3,0,0.1,0.5,0,0.5
					c-3.9,0.3-5.3,1.7-10.5,7l-5.3,5.3l8.4,7.7c5.7,5.3,7.1,6.7,11.1,7c0.1,0,0.2,0.6,0,0.5C778.2,97.1,775.7,97,773.7,97z"/>
				<path class="st0" d="M766.4,97.1c0-0.2,0-0.4,0.3-0.5l0,0c1.6-0.1,2.4-0.3,2.4-0.7l0,0c0-0.1-0.1-0.3-0.2-0.6l0,0
					c-0.9-1.3-3.1-3.3-5.5-5.5l0,0l-6.4-6l7-7.2c2.2-2.2,4.2-4.2,4.9-5.4l0,0c0.1-0.3,0.2-0.4,0.2-0.6l0,0c0.1-0.4-0.8-0.6-2.4-0.8
					l0,0c-0.3-0.1-0.2-0.3-0.3-0.5l0,0c0-0.1,0.1-0.4,0.3-0.4l0,0h0.1l0,0c1.4,0.2,3.2,0.2,5.2,0.2l0,0c1.4,0,2.9-0.1,3.9-0.2l0,0
					c0,0,0,0,0.1,0l0,0c0.2,0,0.3,0.2,0.3,0.3l0,0c-0.1,0.2,0,0.4-0.3,0.5l0,0c-3.9,0.3-5.1,1.7-10.4,7l0,0l-5.2,5.1l8.3,7.6
					c5.7,5.3,7.1,6.6,11.1,7l0,0c0.2,0.1,0.2,0.3,0.3,0.5l0,0c0,0.1-0.1,0.3-0.3,0.4l0,0v-0.1v0.1c-1.4-0.2-3.9-0.3-5.9-0.3l0,0l0,0
					v-0.2c2,0,4.5,0.1,5.9,0.3l0,0l0,0l0,0l0,0l0,0V97l0,0l0,0l0,0c-4-0.3-5.5-1.8-11.2-7l0,0l-8.5-7.8l5.4-5.4
					c5.2-5.3,6.6-6.8,10.6-7.1l0,0v-0.1l0,0l0,0l0,0c-1,0.1-2.5,0.2-3.9,0.2l0,0c-2,0-3.8,0-5.2-0.2l0,0l0,0l0,0v0.1l0,0
					c1.6,0.2,2.6,0.2,2.7,1.1l0,0c0,0.2-0.1,0.4-0.2,0.7l0,0c-0.8,1.3-2.8,3.4-5,5.5l0,0l-6.7,6.9l6.2,5.8c2.3,2.2,4.6,4.2,5.5,5.5
					l0,0c0.2,0.3,0.3,0.5,0.3,0.8l0,0c-0.1,0.8-1.1,0.8-2.6,1l0,0l0,0v0.1l0,0l0,0l0,0c2-0.2,4.4-0.3,7-0.3l0,0V97v0.2
					c-2.6,0-5,0.1-7,0.3l0,0h-0.1l0,0C766.5,97.5,766.4,97.2,766.4,97.1L766.4,97.1z M775.9,69.5L775.9,69.5L775.9,69.5L775.9,69.5
					L775.9,69.5L775.9,69.5z M748,97.1c0-0.2,0-0.3,0.2-0.5l0,0c4.7-0.5,4.6-0.1,4.7-6.8l0,0v-13c-0.1-6.8,0.1-6.3-4.6-6.9l0,0
					c-0.3-0.1-0.2-0.3-0.3-0.4l0,0c0-0.1,0-0.3,0.3-0.4l0,0l0,0l0,0c1.9,0.2,4.4,0.3,7.1,0.3l0,0c1.9,0,3.8-0.1,5.2-0.3l0,0
					c0,0,0,0,0.1,0l0,0c0.3,0,0.3,0.3,0.3,0.4l0,0c0,0.2,0.1,0.3-0.2,0.5l0,0c-3.8,0.4-3.8,0.5-3.8,6.9l0,0v13
					c0.1,6.4,0.1,6.5,3.9,6.8l0,0c0.2,0.1,0.2,0.3,0.2,0.5l0,0c0,0.1,0,0.4-0.3,0.4l0,0v-0.1v-0.1v0.2c-1.4-0.2-3.3-0.3-5.2-0.3l0,0
					c-2.7,0-5.2,0.1-7.1,0.3l0,0l0,0l0,0C748.1,97.5,748,97.2,748,97.1L748,97.1z M753.3,76.8v13c0.1,6.7-0.3,6.8-4.9,7.2l0,0l0,0
					v0.1l0,0l0,0l0,0c1.9-0.2,4.5-0.3,7.1-0.3l0,0c1.9,0,3.8,0.1,5.2,0.3l0,0l0,0l0,0V97l0,0l0,0l0,0c-3.8-0.2-4.1-0.9-4.1-7.2l0,0
					v-13c-0.1-6.2,0.3-7,4.1-7.2l0,0v-0.1l0,0l0,0l0,0c-1.4,0.2-3.3,0.3-5.2,0.3l0,0c-2.6,0-5.1-0.1-7.1-0.3l0,0l0,0l0,0v0.1l0,0
					C753,70.1,753.4,70.2,753.3,76.8L753.3,76.8z M760.8,69.4L760.8,69.4L760.8,69.4L760.8,69.4L760.8,69.4z"/>
			</g>
		</g>
	</g>
	<g>
		<g>
			<path class="st0" d="M132.3,11.6c-4.9,0.1-10,2-14.2,5.6s-7.4,9.3-7.4,16.2c0,5.6,0,20.2,0,33.3s0,24.8,0,24.8
				c0,2.3,1.9,4.2,4.2,4.2l0,0c2.3,0,4.1-1.9,4.1-4.2c0,0,0.1-46.8,0-58.2c0-4.4,1.8-7.5,4.5-9.9c2.7-2.3,6.3-3.6,8.8-3.6
				c3.4,0,6.5,1.3,8.8,3.3s3.5,4.7,3.5,7.2c0,2.7-1.1,5.1-2.8,6.9c-1,1.1-2.3,1.9-3.3,2.3c1-1.4,1.7-3.1,1.7-5
				c0-4.5-3.7-8.2-8.3-8.1c-2.9,0-5.5,1.6-6.9,3.9c-1,1.4-1.8,3.4-1.9,5.8c0,1.9,0.6,4,1.5,5.6c1.3,2.2,3.7,4.1,5.8,5.1
				c2.1,0.9,4.4,1.4,6.7,1.4c4.1-0.1,7.8-2.2,10.8-5.3c2.9-3.1,5-7.5,5-12.6C152.8,19.9,143.5,11.5,132.3,11.6z"/>
			<path class="st0" d="M0,30.4c0,5.1,2.1,9.5,5,12.6s6.6,5.2,10.8,5.3c2.3,0,4.5-0.5,6.7-1.4c2.1-0.9,4.5-2.9,5.8-5.1
				c1-1.6,1.5-3.7,1.5-5.6c-0.1-2.5-0.9-4.4-1.9-5.8c-1.4-2.3-4-3.9-6.9-3.9c-4.5,0-8.2,3.6-8.3,8.1c0,1.9,0.6,3.6,1.7,5
				c-1-0.4-2.2-1.2-3.3-2.3c-1.7-1.8-2.8-4.2-2.8-6.9c0-2.6,1.3-5.2,3.5-7.2s5.4-3.4,8.8-3.3c2.6,0,6.2,1.2,8.8,3.6
				c2.7,2.4,4.5,5.5,4.5,9.9c-0.1,11.4,0,58.2,0,58.2c0,2.3,1.9,4.2,4.1,4.2l0,0c2.3,0,4.2-1.9,4.2-4.2c0,0,0-11.7,0-24.8
				s0-27.7,0-33.3c0.1-7-3.1-12.6-7.4-16.2c-4.2-3.7-9.4-5.6-14.2-5.6C9.6,11.5,0.2,19.9,0,30.4z"/>
			<path class="st0" d="M53.1,91.9V33.4c0-2.6,2.1-4.7,4.7-4.7l0,0c2.6,0,4.7,2.1,4.7,4.7l0,0v58.4c0,2.6-2.1,4.7-4.7,4.7l0,0
				C55.2,96.5,53.1,94.4,53.1,91.9L53.1,91.9z"/>
			<path class="st0" d="M71.8,91.9V33.4c0-2.6,2.1-4.7,4.7-4.7l0,0c2.6,0,4.7,2.1,4.7,4.7l0,0v58.4c0,2.6-2.1,4.7-4.7,4.7l0,0
				C73.9,96.5,71.8,94.4,71.8,91.9L71.8,91.9z"/>
			<path class="st0" d="M90.5,91.9V33.4c0-2.6,2.1-4.7,4.7-4.7l0,0c2.6,0,4.7,2.1,4.7,4.7l0,0v58.4c0,2.6-2.1,4.7-4.7,4.7l0,0
				C92.6,96.5,90.5,94.4,90.5,91.9L90.5,91.9z"/>
			<path class="st0" d="M50.8,21.5c-2.3,0-4.2-1.9-4.2-4.2l0,0c0-2.3,1.9-4.2,4.2-4.2l0,0h50.8c2.3,0,4.2,1.9,4.2,4.2l0,0
				c0,2.3-1.9,4.2-4.2,4.2l0,0H50.8L50.8,21.5z"/>
			<path class="st0" d="M31.7,8.3c-2.3,0-4.2-1.9-4.2-4.2l0,0c0-2.3,1.9-4.2,4.2-4.2l0,0h89.4c2.3,0,4.2,1.9,4.2,4.2l0,0
				c0,2.3-1.9,4.2-4.2,4.2l0,0H31.7L31.7,8.3z"/>
		</g>
		<g>
			<path class="st0" d="M127.5,88v2.2V91v0.9v0.8v1h-1.2V88h-1.1h-0.5h-0.4v-0.9h5.3V88H127.5z"/>
			<path class="st0" d="M136.3,93.8V91v-2.8l0,0l-1,2.9l-0.9,2.6h-1.1l-0.9-2.6l-0.5-1.4l-0.5-1.5l0,0v5.5h-0.9v-3.1v-1.8V87h1.7
				l0.8,2.2l0.5,1.3l0.6,1.7v-0.1l1.9-5.2h1.7v3.4v3.2h-1.4V93.8z"/>
		</g>
	</g>
</g>
</svg>
