<?xml version="1.0" encoding="utf-8"?>
<!-- Generator: Adobe Illustrator 23.0.2, SVG Export Plug-In . SVG Version: 6.00 Build 0)  -->
<svg version="1.1" id="Layer_1" xmlns="http://www.w3.org/2000/svg" xmlns:xlink="http://www.w3.org/1999/xlink" x="0px" y="0px"
	 viewBox="0 0 200 167.97" style="enable-background:new 0 0 200 167.97;" xml:space="preserve">
<style type="text/css">
	.st0{clip-path:url(#SVGID_2_);}
	.st1{clip-path:url(#SVGID_4_);fill:#FFFFFF;}
</style>
<g id="Artwork_1_1_">
	<g>
		<defs>
			<rect id="SVGID_1_" width="200" height="167.97"/>
		</defs>
		<clipPath id="SVGID_2_">
			<use xlink:href="#SVGID_1_"  style="overflow:visible;"/>
		</clipPath>
		<g class="st0">
			<defs>
				<rect id="SVGID_3_" y="0" width="200" height="167.97"/>
			</defs>
			<clipPath id="SVGID_4_">
				<use xlink:href="#SVGID_3_"  style="overflow:visible;"/>
			</clipPath>
			<path class="st1" d="M107.42,94.86c-3.14-1.03-5.82-2.6-8.04-4.71c-2.22-2.11-3.94-4.71-5.15-7.82
				c-1.22-3.1-1.83-6.73-1.83-10.87c0-4.58,0.74-9,2.22-13.25c1.48-4.25,3.57-8.02,6.26-11.31c2.7-3.29,6-5.91,9.92-7.87
				c3.92-1.96,8.31-2.94,13.19-2.94c3.99,0,7.63,0.52,10.92,1.55c0.59,0.19,1.17,0.4,1.73,0.62L98.38,0L82.85,15.53
				c1.71-0.26,3.64-0.39,5.78-0.39c1.7,0,3.42,0.08,5.16,0.22c1.74,0.15,3.45,0.37,5.15,0.67L96.5,27.34
				c-0.81-0.07-1.66-0.15-2.55-0.22c-0.89-0.07-1.74-0.11-2.55-0.11c-1.99,0-3.51,0.24-4.54,0.72c-1.04,0.48-1.83,1.18-2.38,2.11
				c-0.55,0.93-0.98,2.03-1.27,3.33c-0.3,1.29-0.67,2.79-1.11,4.49h11.2l-2.22,10.53H79.76L69.91,94.9l28.47,28.47l27.58-27.58
				c-2.44,0.41-5.12,0.62-8.06,0.62C114.05,96.41,110.56,95.89,107.42,94.86"/>
			<path class="st1" d="M149.83,70.13h-42.24c-0.08,0.37-0.11,0.7-0.11,1v0.89v1.44c0,3.33,1.03,6.02,3.1,8.09
				c2.07,2.07,5.25,3.1,9.54,3.1c1.55,0,2.94-0.24,4.16-0.72c1.22-0.48,2.29-1.09,3.22-1.83c0.92-0.74,1.74-1.59,2.44-2.55
				c0.7-0.96,1.35-1.89,1.94-2.77h13.09l15.1-15.1l-11.18-11.18c1.22,3.08,1.83,6.63,1.83,10.64
				C150.72,63.96,150.42,66.96,149.83,70.13"/>
			<path class="st1" d="M135.14,55.78c-0.26-1.44-0.76-2.75-1.5-3.94c-0.74-1.18-1.81-2.12-3.21-2.83c-1.41-0.7-3.26-1.05-5.54-1.05
				c-2.22,0-4.18,0.33-5.88,1c-1.7,0.66-3.18,1.55-4.44,2.66c-1.25,1.11-2.31,2.4-3.16,3.88c-0.85,1.48-1.57,3.03-2.16,4.66h26.28
				C135.53,58.68,135.4,57.22,135.14,55.78"/>
			<polygon class="st1" points="54.7,48.18 55.91,42.47 36.69,61.69 56.91,81.9 64.02,48.18 			"/>
			<path class="st1" d="M68.08,30.29l-7.36,7.36h5.62C66.88,34.95,67.46,32.5,68.08,30.29"/>
			<polygon class="st1" points="14.01,131.1 14.01,134.78 4.38,134.78 4.38,139.38 12.72,139.38 12.72,142.79 4.38,142.79 
				4.38,151.02 0,151.02 0,131.1 			"/>
			<path class="st1" d="M16.35,137c0.45-1.27,1.09-2.39,1.93-3.33c0.84-0.95,1.86-1.69,3.08-2.23c1.22-0.54,2.59-0.81,4.12-0.81
				c1.54,0,2.92,0.27,4.13,0.81c1.21,0.54,2.23,1.28,3.07,2.23c0.84,0.95,1.48,2.06,1.93,3.33s0.67,2.66,0.67,4.14
				c0,1.45-0.22,2.8-0.67,4.06c-0.45,1.26-1.09,2.35-1.93,3.28c-0.84,0.93-1.86,1.66-3.07,2.19c-1.21,0.53-2.58,0.8-4.13,0.8
				c-1.53,0-2.9-0.27-4.12-0.8c-1.22-0.53-2.25-1.26-3.08-2.19c-0.84-0.93-1.48-2.02-1.93-3.28c-0.45-1.26-0.67-2.61-0.67-4.06
				C15.68,139.65,15.9,138.27,16.35,137 M20.35,143.58c0.2,0.79,0.51,1.5,0.94,2.13s0.99,1.14,1.67,1.52
				c0.69,0.38,1.52,0.57,2.51,0.57c0.99,0,1.82-0.19,2.51-0.57c0.69-0.38,1.25-0.89,1.67-1.52c0.43-0.63,0.74-1.34,0.94-2.13
				c0.2-0.79,0.29-1.6,0.29-2.44c0-0.87-0.1-1.72-0.29-2.54c-0.2-0.82-0.51-1.55-0.94-2.19c-0.43-0.64-0.99-1.15-1.67-1.53
				c-0.69-0.38-1.52-0.57-2.51-0.57c-0.99,0-1.82,0.19-2.51,0.57c-0.69,0.38-1.25,0.89-1.67,1.53c-0.43,0.64-0.74,1.37-0.94,2.19
				c-0.2,0.82-0.29,1.67-0.29,2.54C20.06,141.98,20.16,142.79,20.35,143.58"/>
			<path class="st1" d="M52.9,149.5c-1.51,1.31-3.59,1.97-6.25,1.97c-2.7,0-4.79-0.65-6.26-1.95c-1.48-1.3-2.22-3.31-2.22-6.03
				V131.1h4.38v12.39c0,0.54,0.05,1.07,0.14,1.59c0.09,0.52,0.29,0.98,0.59,1.38c0.3,0.4,0.71,0.73,1.24,0.98
				c0.53,0.25,1.24,0.38,2.13,0.38c1.56,0,2.64-0.35,3.24-1.05c0.59-0.7,0.89-1.79,0.89-3.28V131.1h4.38v12.39
				C55.16,146.18,54.41,148.19,52.9,149.5"/>
			<polygon class="st1" points="63.28,131.1 71.6,144.46 71.65,144.46 71.65,131.1 75.75,131.1 75.75,151.02 71.37,151.02 
				63.09,137.68 63.03,137.68 63.03,151.02 58.93,151.02 58.93,131.1 			"/>
			<path class="st1" d="M88.2,131.1c1.28,0,2.48,0.2,3.58,0.62c1.11,0.41,2.06,1.02,2.88,1.84c0.81,0.82,1.44,1.84,1.9,3.07
				c0.46,1.23,0.68,2.67,0.68,4.33c0,1.45-0.19,2.79-0.56,4.02c-0.37,1.23-0.94,2.29-1.69,3.18c-0.75,0.89-1.69,1.59-2.82,2.11
				c-1.13,0.51-2.45,0.77-3.98,0.77h-8.6V131.1H88.2z M87.89,147.34c0.63,0,1.25-0.1,1.84-0.31c0.59-0.2,1.12-0.54,1.59-1.02
				c0.46-0.47,0.84-1.09,1.12-1.85c0.28-0.76,0.42-1.69,0.42-2.79c0-1-0.1-1.91-0.29-2.72c-0.2-0.81-0.52-1.5-0.96-2.08
				c-0.45-0.58-1.04-1.02-1.77-1.32c-0.73-0.31-1.64-0.46-2.72-0.46h-3.12v12.56H87.89z"/>
			<path class="st1" d="M110.21,131.1l7.45,19.92h-4.55l-1.51-4.44h-7.45l-1.56,4.44h-4.41l7.53-19.92H110.21z M110.46,143.32
				l-2.51-7.31h-0.06l-2.59,7.31H110.46z"/>
			<polygon class="st1" points="115.26,134.78 115.26,131.1 131.58,131.1 131.58,134.78 125.61,134.78 125.61,151.02 121.23,151.02 
				121.23,134.78 			"/>
			<rect x="133.87" y="131.1" class="st1" width="4.38" height="19.92"/>
			<path class="st1" d="M141.91,137c0.45-1.27,1.09-2.39,1.93-3.33c0.84-0.95,1.86-1.69,3.08-2.23c1.22-0.54,2.59-0.81,4.12-0.81
				c1.54,0,2.92,0.27,4.13,0.81c1.21,0.54,2.23,1.28,3.07,2.23c0.84,0.95,1.48,2.06,1.92,3.33c0.45,1.27,0.67,2.66,0.67,4.14
				c0,1.45-0.22,2.8-0.67,4.06c-0.44,1.26-1.09,2.35-1.92,3.28c-0.84,0.93-1.86,1.66-3.07,2.19c-1.21,0.53-2.58,0.8-4.13,0.8
				c-1.53,0-2.9-0.27-4.12-0.8c-1.22-0.53-2.25-1.26-3.08-2.19c-0.84-0.93-1.48-2.02-1.93-3.28c-0.45-1.26-0.67-2.61-0.67-4.06
				C141.24,139.65,141.46,138.27,141.91,137 M145.91,143.58c0.19,0.79,0.51,1.5,0.93,2.13c0.43,0.63,0.99,1.14,1.67,1.52
				c0.69,0.38,1.53,0.57,2.51,0.57c0.98,0,1.82-0.19,2.51-0.57c0.69-0.38,1.25-0.89,1.67-1.52c0.43-0.63,0.74-1.34,0.93-2.13
				c0.2-0.79,0.29-1.6,0.29-2.44c0-0.87-0.1-1.72-0.29-2.54c-0.19-0.82-0.51-1.55-0.93-2.19c-0.43-0.64-0.99-1.15-1.67-1.53
				c-0.69-0.38-1.53-0.57-2.51-0.57c-0.99,0-1.82,0.19-2.51,0.57c-0.69,0.38-1.25,0.89-1.67,1.53c-0.43,0.64-0.74,1.37-0.93,2.19
				c-0.2,0.82-0.29,1.67-0.29,2.54C145.62,141.98,145.72,142.79,145.91,143.58"/>
			<polygon class="st1" points="168.16,131.1 176.48,144.46 176.53,144.46 176.53,131.1 180.64,131.1 180.64,151.02 176.26,151.02 
				167.97,137.68 167.91,137.68 167.91,151.02 163.81,151.02 163.81,131.1 			"/>
			<path class="st1" d="M187.83,146.11c0.24,0.47,0.56,0.84,0.96,1.13c0.4,0.29,0.87,0.51,1.41,0.64c0.54,0.14,1.1,0.21,1.67,0.21
				c0.39,0,0.81-0.03,1.25-0.1c0.45-0.06,0.87-0.19,1.26-0.38c0.39-0.19,0.71-0.44,0.98-0.77c0.26-0.33,0.39-0.74,0.39-1.24
				c0-0.54-0.17-0.98-0.52-1.31c-0.34-0.34-0.8-0.62-1.35-0.84c-0.56-0.22-1.19-0.42-1.9-0.59c-0.71-0.17-1.42-0.35-2.15-0.56
				c-0.74-0.19-1.47-0.41-2.18-0.69c-0.71-0.27-1.34-0.62-1.9-1.05c-0.56-0.43-1.01-0.96-1.35-1.6c-0.34-0.64-0.52-1.42-0.52-2.33
				c0-1.02,0.22-1.91,0.66-2.67c0.44-0.75,1.01-1.38,1.72-1.88c0.71-0.5,1.51-0.87,2.4-1.12c0.89-0.24,1.79-0.36,2.68-0.36
				c1.04,0,2.04,0.12,3,0.35c0.96,0.23,1.81,0.61,2.55,1.13c0.74,0.52,1.34,1.18,1.77,2c0.44,0.81,0.66,1.79,0.66,2.94h-4.24
				c-0.04-0.59-0.16-1.09-0.37-1.48c-0.21-0.39-0.5-0.7-0.85-0.92c-0.35-0.22-0.76-0.38-1.21-0.47c-0.46-0.09-0.95-0.14-1.49-0.14
				c-0.35,0-0.71,0.04-1.06,0.11c-0.35,0.08-0.67,0.21-0.96,0.39s-0.53,0.42-0.71,0.7c-0.19,0.28-0.28,0.63-0.28,1.06
				c0,0.39,0.07,0.71,0.22,0.95c0.15,0.24,0.44,0.46,0.88,0.67c0.44,0.2,1.04,0.41,1.81,0.61c0.77,0.2,1.78,0.46,3.03,0.78
				c0.37,0.08,0.89,0.21,1.55,0.41c0.66,0.2,1.32,0.51,1.97,0.94c0.65,0.43,1.21,1,1.69,1.72c0.47,0.72,0.71,1.63,0.71,2.75
				c0,0.91-0.18,1.76-0.53,2.54c-0.35,0.78-0.88,1.46-1.58,2.02c-0.7,0.57-1.56,1.01-2.59,1.32c-1.03,0.32-2.23,0.47-3.59,0.47
				c-1.1,0-2.16-0.13-3.19-0.4c-1.03-0.27-1.95-0.69-2.74-1.27c-0.79-0.58-1.42-1.31-1.88-2.2c-0.47-0.89-0.69-1.95-0.67-3.18h4.24
				C187.47,145.07,187.59,145.64,187.83,146.11"/>
			<polygon class="st1" points="69.13,162.06 75.81,162.06 75.81,161.31 69.13,161.31 69.13,156.86 76.23,156.86 76.23,156.12 
				68.38,156.12 68.38,167.72 76.3,167.72 76.3,166.97 69.13,166.97 			"/>
			<polygon class="st1" points="82.3,166.53 78.27,156.25 78.21,156.11 77.45,156.11 81.98,167.72 82.63,167.72 87.05,156.11 
				86.27,156.11 			"/>
			<polygon class="st1" points="89.7,162.06 96.38,162.06 96.38,161.31 89.7,161.31 89.7,156.86 96.8,156.86 96.8,156.12 
				88.95,156.12 88.95,167.72 96.86,167.72 96.86,166.97 89.7,166.97 			"/>
			<polygon class="st1" points="107.36,166.47 100.09,156.21 100.03,156.11 99.23,156.11 99.23,167.72 99.98,167.72 99.98,157.37 
				107.24,167.63 107.31,167.72 108.11,167.72 108.11,156.11 107.36,156.11 			"/>
			<polygon class="st1" points="110.14,156.86 114.15,156.86 114.15,167.72 114.9,167.72 114.9,156.86 118.92,156.86 118.92,156.11 
				110.14,156.11 			"/>
			<path class="st1" d="M129.03,163.26c-0.22-0.37-0.52-0.68-0.9-0.91c-0.36-0.22-0.79-0.39-1.27-0.52
				c-0.46-0.13-0.96-0.26-1.48-0.39c-0.48-0.11-0.95-0.22-1.41-0.33c-0.44-0.1-0.84-0.24-1.17-0.42c-0.33-0.17-0.6-0.4-0.8-0.67
				c-0.2-0.26-0.29-0.63-0.29-1.08c0-0.45,0.1-0.83,0.29-1.12c0.2-0.3,0.46-0.55,0.77-0.72c0.31-0.18,0.67-0.31,1.06-0.39
				c0.94-0.17,1.79-0.14,2.52,0.04c0.4,0.1,0.76,0.26,1.05,0.48c0.29,0.23,0.53,0.52,0.7,0.88c0.18,0.36,0.28,0.82,0.3,1.36
				l0.01,0.21h0.75l-0.01-0.23c-0.03-0.66-0.16-1.22-0.38-1.67c-0.22-0.46-0.52-0.84-0.9-1.13c-0.37-0.28-0.81-0.49-1.3-0.62
				c-0.88-0.23-1.93-0.26-2.98-0.04c-0.48,0.1-0.92,0.27-1.3,0.49c-0.39,0.24-0.72,0.56-0.96,0.96c-0.25,0.4-0.38,0.91-0.38,1.5
				c0,0.58,0.12,1.07,0.36,1.44c0.24,0.37,0.56,0.67,0.94,0.88c0.38,0.21,0.81,0.38,1.27,0.5c0.45,0.12,0.9,0.22,1.35,0.33
				c0.43,0.11,0.88,0.21,1.34,0.31c0.44,0.09,0.85,0.24,1.21,0.42c0.35,0.18,0.64,0.41,0.86,0.72c0.21,0.29,0.33,0.7,0.33,1.21
				c0,0.44-0.1,0.81-0.29,1.12c-0.2,0.31-0.45,0.58-0.77,0.78c-0.32,0.21-0.69,0.36-1.1,0.45c-0.97,0.23-2.01,0.17-2.83-0.04
				c-0.46-0.12-0.87-0.32-1.2-0.59c-0.33-0.27-0.59-0.62-0.77-1.05c-0.19-0.44-0.28-0.98-0.28-1.61v-0.22h-0.75l0,0.21
				c-0.01,0.73,0.1,1.37,0.32,1.9c0.23,0.53,0.55,0.97,0.97,1.31c0.41,0.34,0.91,0.58,1.47,0.73c0.56,0.15,1.17,0.23,1.82,0.23
				c0.5,0,0.99-0.06,1.47-0.17c0.49-0.12,0.94-0.3,1.34-0.56c0.4-0.26,0.73-0.6,0.98-1c0.25-0.41,0.37-0.91,0.37-1.48
				C129.36,164.14,129.25,163.64,129.03,163.26"/>
		</g>
	</g>
</g>
</svg>
