<?xml version="1.0" encoding="utf-8"?>
<!-- Generator: Adobe Illustrator 23.0.4, SVG Export Plug-In . SVG Version: 6.00 Build 0)  -->
<svg version="1.1" id="Layer_1" xmlns="http://www.w3.org/2000/svg" xmlns:xlink="http://www.w3.org/1999/xlink" x="0px" y="0px"
	 viewBox="0 0 48 38" style="enable-background:new 0 0 48 38;" xml:space="preserve">
<style type="text/css">
	.st0{fill-rule:evenodd;clip-rule:evenodd;fill:#0996F7;}
</style>
<path id="path-1_1_" class="st0" d="M47.9,34.7c-0.5,1.8-2,3-3.9,3c-2.7,0-5.5-0.8-8.5-2.5c-4.2,1-9.1,0.7-13.2-1.1
	c3.4-0.2,6.7-1,9.7-2.4c1.4-0.1,2.7-0.4,4.1-0.8c1.8,1.2,4.8,2.8,7.9,2.8c-2.7-1.5-3.6-3.2-3.8-4.9c2.1-1.6,3.8-3.9,3.8-6.8
	c0-0.9-0.2-1.8-0.6-2.7c0.6-2.2,0.7-4.2,0.4-6.2c2.7,2.5,4.2,5.8,4.2,8.9c0,2.8-1.1,5.4-2.9,7.6c0.2,0.2,0.5,0.3,0.8,0.5
	C47.5,31,48.3,32.9,47.9,34.7z M20,4.3C9.8,4.3,4,10.4,4,15.2c0,3.2,2.1,5.8,4.6,7.6c-0.3,1.8-1.4,3.8-4.6,5.5
	c3.7,0,7.4-1.8,9.5-3.1c2.1,0.7,4.3,1,6.5,1c10.2,0,16-6.1,16-10.9C36,10.4,30.2,4.3,20,4.3z M20,0.3c12.5,0,20,7.8,20,14.9
	c0,1.9-0.5,3.9-1.6,5.7c-1,1.8-2.4,3.4-4.1,4.7c-1.8,1.4-3.9,2.5-6.2,3.3c-2.5,0.8-5.2,1.2-8.1,1.2c-2,0-4-0.2-5.9-0.7
	c-3.5,1.9-6.9,2.8-10.1,2.8c-1.8,0-3.5-1.3-3.9-3.1c-0.4-1.8,0.4-3.7,2.1-4.5c0.6-0.3,1.1-0.6,1.5-0.9C3,23.2,2.5,22.5,2,21.8
	c-1.3-2-2-4.2-2-6.5C0,8.2,7.5,0.3,20,0.3z"/>
</svg>
