<?xml version="1.0" encoding="utf-8"?>
<!-- Generator: Adobe Illustrator 23.0.4, SVG Export Plug-In . SVG Version: 6.00 Build 0)  -->
<svg version="1.1" id="Layer_1" xmlns="http://www.w3.org/2000/svg" xmlns:xlink="http://www.w3.org/1999/xlink" x="0px" y="0px"
	 viewBox="0 0 49 42" style="enable-background:new 0 0 49 42;" xml:space="preserve">
<style type="text/css">
	.st0{fill:none;stroke:#0996F7;stroke-width:5;}
</style>
<title>Mask</title>
<desc>Created with Sketch.</desc>
<path class="st0" d="M34.8,2.5c-4.2,0-8.2,3.3-10.1,5.2c-1.9-1.9-5.9-5.2-10.1-5.2C7.3,2.5,3,6.7,3,13.8c0,5.8,5.3,10.6,5.5,10.8
	l14.9,14.4c0.7,0.7,1.8,0.7,2.5,0l14.9-14.3c0.2-0.2,5.5-5.1,5.5-10.8C46.3,6.7,42,2.5,34.8,2.5z"/>
</svg>
