<?xml version="1.0" encoding="utf-8"?>
<!-- Generator: Adobe Illustrator 23.0.4, SVG Export Plug-In . SVG Version: 6.00 Build 0)  -->
<svg version="1.1" id="Layer_1" xmlns="http://www.w3.org/2000/svg" xmlns:xlink="http://www.w3.org/1999/xlink" x="0px" y="0px"
	 viewBox="0 0 48 48" style="enable-background:new 0 0 48 48;" xml:space="preserve">
<style type="text/css">
	.st0{fill-rule:evenodd;clip-rule:evenodd;fill:#0996F7;}
</style>
<path id="path-1_1_" class="st0" d="M24,0C10.7,0,0,10.7,0,24s10.7,24,24,24s24-10.7,24-24S37.3,0,24,0z M24,4.6
	c10.7,0,19.4,8.7,19.4,19.4c0,3.3-0.8,6.5-2.3,9.2c-1.3-2.6-3.6-4.6-6.5-5.5c1.3-2,2-4.4,2-6.8C36.5,14,30.9,8.4,24,8.4
	c-6.9,0-12.5,5.6-12.5,12.5c0,2.5,0.7,4.8,2,6.8c-2.9,0.9-5.2,2.9-6.5,5.5c-1.5-2.7-2.3-5.9-2.3-9.2C4.6,13.3,13.3,4.6,24,4.6z
	 M16.3,20.9c0-4.3,3.5-7.7,7.7-7.7s7.7,3.5,7.7,7.7s-3.5,7.7-7.7,7.7S16.3,25.2,16.3,20.9z M10.5,37.8c0.1-3.3,2.9-5.9,6.2-5.9H18
	c3.7,2,8.3,2,12,0h1.4c3.3,0,6,2.6,6.2,5.9C30,45.2,18,45.2,10.5,37.8z"/>
</svg>
