<?xml version="1.0" encoding="utf-8"?>
<!-- Generator: Adobe Illustrator 23.0.3, SVG Export Plug-In . SVG Version: 6.00 Build 0)  -->
<svg version="1.1" id="Layer_1" xmlns="http://www.w3.org/2000/svg" xmlns:xlink="http://www.w3.org/1999/xlink" x="0px" y="0px"
	 viewBox="0 0 100 100" style="enable-background:new 0 0 100 100;" xml:space="preserve">
<style type="text/css">
	.st0{fill-rule:evenodd;clip-rule:evenodd;fill:#0996F7;}
</style>
<path class="st0" d="M80.5,39.1h-4.7c-1.3,0-2.3,1-2.3,2.3v8.3c0,12.9-10.4,23.6-23.3,23.7C37.2,73.5,26.6,63,26.6,50v-8.6
	c0-1.3-1-2.3-2.3-2.3h-4.7c-1.3,0-2.3,1-2.3,2.3V50c0,16.5,12.2,30.2,28.1,32.5v8.9H32c-1.3,0-2.3,1-2.3,2.3v3.9
	c0,1.3,1,2.3,2.3,2.3H68c1.3,0,2.3-1,2.3-2.3v-3.9c0-1.3-1-2.3-2.3-2.3H54.7v-8.9c15.9-2.3,28.1-16,28.1-32.5v-8.6
	C82.8,40.1,81.8,39.1,80.5,39.1z M31.2,50V18.8C31.2,8.4,39.6,0,50,0s18.8,8.4,18.8,18.8V50c0,10.4-8.4,18.8-18.8,18.8
	S31.2,60.4,31.2,50z"/>
</svg>
