<?xml version="1.0" encoding="utf-8"?>
<!-- Generator: Adobe Illustrator 22.0.1, SVG Export Plug-In . SVG Version: 6.00 Build 0)  -->
<svg version="1.1" id="Layer_1" xmlns="http://www.w3.org/2000/svg" xmlns:xlink="http://www.w3.org/1999/xlink" x="0px" y="0px"
	 viewBox="0 0 25 25" style="enable-background:new 0 0 25 25;" xml:space="preserve">
<style type="text/css">
	.st0{fill:none;stroke:#FFFFFF;stroke-width:3;stroke-linecap:square;}
</style>
<g id="X" transform="translate(8.000000, 8.000000)">
	<path id="Line" class="st0" d="M12.5-3.5l-16,16"/>
	<path id="Line_1_" class="st0" d="M-3.5-3.5l16,16"/>
</g>
</svg>
