<?xml version="1.0" encoding="utf-8"?>
<!-- Generator: Adobe Illustrator 23.0.3, SVG Export Plug-In . SVG Version: 6.00 Build 0)  -->
<svg version="1.1" id="Layer_1" xmlns="http://www.w3.org/2000/svg" xmlns:xlink="http://www.w3.org/1999/xlink" x="0px" y="0px"
	 viewBox="0 0 24 16" style="enable-background:new 0 0 24 16;" xml:space="preserve">
<style type="text/css">
	.st0{fill-rule:evenodd;clip-rule:evenodd;fill:#242A42;}
</style>
<path id="path-1_1_" class="st0" d="M12.9,1.1l10.6,10.6c0.5,0.5,0.5,1.3,0,1.9l-1.2,1.2c-0.5,0.5-1.3,0.5-1.9,0L12,6.4l-8.5,8.4
	c-0.5,0.5-1.3,0.5-1.9,0l-1.2-1.2c-0.5-0.5-0.5-1.3,0-1.9L11.1,1.1C11.6,0.6,12.4,0.6,12.9,1.1z"/>
</svg>
