<?xml version="1.0" encoding="utf-8"?>
<!-- Generator: Adobe Illustrator 23.0.4, SVG Export Plug-In . SVG Version: 6.00 Build 0)  -->
<svg version="1.1" id="Layer_1" xmlns="http://www.w3.org/2000/svg" xmlns:xlink="http://www.w3.org/1999/xlink" x="0px" y="0px"
	 viewBox="0 0 24 16" style="enable-background:new 0 0 24 16;" xml:space="preserve">
<style type="text/css">
	.st0{fill-rule:evenodd;clip-rule:evenodd;fill:#FFFFFF;}
</style>
<path id="path-1_1_" class="st0" d="M11.1,14.9L0.4,4.2c-0.5-0.5-0.5-1.3,0-1.9l1.2-1.2c0.5-0.5,1.3-0.5,1.9,0L12,9.6l8.5-8.4
	c0.5-0.5,1.3-0.5,1.9,0l1.2,1.2c0.5,0.5,0.5,1.3,0,1.9L12.9,14.9C12.4,15.4,11.6,15.4,11.1,14.9z"/>
</svg>
